MD5Version 10
commandline "x:-90"

numFrames 8
numJoints 33
frameRate 30
numAnimatedComponents 7

hierarchy {
	"origin"	-1 0 0	// 
	"pelvis"	0 0 0	// origin
	"abdomen"	1 0 0	// pelvis
	"chest"	2 0 0	// abdomen
	"head"	3 32 0	// chest ( Qz )
	"nose"	4 0 0	// head
	"right_shoulder"	2 0 0	// abdomen
	"right_arm"	6 0 0	// right_shoulder
	"right_forearm"	7 56 1	// right_arm ( Qx Qy Qz )
	"roght_hand"	8 0 0	// right_forearm
	"right_fingers"	9 0 0	// roght_hand
	"left_shoulder"	2 0 0	// abdomen
	"left_arm"	11 0 0	// left_shoulder
	"left_forearm"	12 56 4	// left_arm ( Qx Qy Qz )
	"left_hand"	13 0 0	// left_forearm
	"left_fingers"	14 0 0	// left_hand
	"tail_start"	1 0 0	// pelvis
	"tail_2"	16 0 0	// tail_start
	"tail_mid"	17 0 0	// tail_2
	"tail_4"	18 0 0	// tail_mid
	"tail_end"	19 0 0	// tail_4
	"left_hip"	1 0 0	// pelvis
	"left_thigh"	21 0 0	// left_hip
	"left_calf"	22 0 0	// left_thigh
	"left_ankle"	23 0 0	// left_calf
	"left_foot"	24 0 0	// left_ankle
	"left_toes"	25 0 0	// left_foot
	"right_hip"	1 0 0	// pelvis
	"right_thigh"	27 0 0	// right_hip
	"right_calf"	28 0 0	// right_thigh
	"right_ankle"	29 0 0	// right_calf
	"right_foot"	30 0 0	// right_ankle
	"right_toes"	31 0 0	// right_foot
}

bounds {
	( -40.5303 -23.4428 -4.15289 ) ( 61.8175 22.9058 101.509 )
	( -40.3492 -23.4428 -4.14748 ) ( 61.8175 22.9058 101.509 )
	( -40.1497 -23.4428 -4.14151 ) ( 61.8175 22.9058 101.509 )
	( -39.9319 -23.4428 -4.135 ) ( 61.8175 22.9058 101.509 )
	( -40.1497 -23.4428 -4.1415 ) ( 61.8175 22.9058 101.509 )
	( -40.3492 -23.4428 -4.14748 ) ( 61.8175 22.9058 101.509 )
	( -40.5302 -23.4428 -4.15289 ) ( 61.8175 22.9058 101.509 )
	( -40.6928 -23.4428 -4.15774 ) ( 61.8175 22.9058 101.509 )
}

baseframe {
	( -8.26356 -0.000257317 3.13102 ) ( -0.66373 0.244437 -0.243834 )
	( 30.0194 -15.9255 -0.0273342 ) ( -0.000324359 -0.000314375 -0.707252 )
	( 28.1767 0.0 0.000242467 ) ( -0.000463487 0.000238374 -0.0199282 )
	( 17.5943 0.0 0.000365577 ) ( 0.000556063 -0.000940043 -0.0590498 )
	( 15.2163 -0.000417709 -0.000263753 ) ( 0.000156253 0.000798776 -0.452135 )
	( 25.4609 0.000102997 0.000357949 ) ( 0.000142109 -0.000177636 -0.000757306 )
	( 17.5943 0.00038147 -0.000190749 ) ( 0.326316 -0.376578 -0.497964 )
	( 11.153 -0.000762939 0.000953674 ) ( -0.0122458 0.467783 -0.25526 )
	( 9.1926 0.00038147 -0.000143051 ) ( -0.0835762 0.140904 0.324971 )
	( 10.2666 0.00012207 -0.000953674 ) ( 0.186192 0.222837 0.424227 )
	( 8.90909 0.000419617 0.000190735 ) ( 0.383162 0.414762 0.0991226 )
	( 17.5943 0.00038147 -0.000190735 ) ( -0.384737 0.499131 -0.445513 )
	( 10.5661 -0.00038147 0.000286102 ) ( 0.070415 -0.379434 -0.15607 )
	( 10.9975 0.0 0.000953674 ) ( -0.0817875 -0.535313 -0.0192943 )
	( 11.3222 0.000133514 0.0 ) ( -0.285742 -0.134911 0.419662 )
	( 9.6333 -0.000120163 0.00038147 ) ( -0.192134 0.0661794 -0.0643574 )
	( -0.790644 0.578333 0.0 ) ( -0.00016293 -0.000179541 0.526391 )
	( 16.3202 0.000190735 0.000105372 ) ( -0.000153501 -0.000141429 -0.0915535 )
	( 27.1076 -0.000190735 0.000262731 ) ( -0.000379122 -0.000619317 -0.161197 )
	( 29.0154 -0.000213623 0.000250357 ) ( -0.000504445 -0.000978845 -0.190436 )
	( 13.3641 0.0 0.000114502 ) ( 0.000297961 -0.000609489 0.0204499 )
	( 8.90397 -1.95712 8.31505 ) ( -0.429278 0.167435 -0.793557 )
	( 13.6691 -0.000476837 0.0 ) ( 0.336963 -0.288276 0.705975 )
	( 24.71 -0.000225067 -0.000801086 ) ( -0.00626546 -0.0257907 -0.889098 )
	( 12.868 -0.000119209 0.0 ) ( 0.0661376 0.00136757 0.0933647 )
	( 4.44607 -0.000202656 0.0 ) ( 0.0318562 -0.0862827 0.659134 )
	( 9.96665 0.000476837 0.0 ) ( -0.0993083 -0.0709786 0.122436 )
	( 7.5091 -3.34169 -8.26918 ) ( -0.748461 -0.535467 0.329564 )
	( 14.0968 -0.000190735 0.000190735 ) ( -0.00786354 -0.490136 -0.327688 )
	( 22.2335 0.0 -0.000190735 ) ( -0.0185745 -0.0583609 0.951053 )
	( 18.2366 0.0 0.0 ) ( -0.000147156 0.000190013 -0.601681 )
	( 5.20794 0.0 0.000953674 ) ( -0.000191219 0.000273211 -0.532617 )
	( 9.52918 0.000834465 0.000953674 ) ( 0.000573648 0.000109641 0.191234 )
}

frame 0 {
	-0.463086 
	-0.0838023 0.146896 0.343445 
	-0.0748243 -0.539762 -0.00932686 
}

frame 1 {
	-0.473967 
	-0.0838074 0.152949 0.361708 
	-0.0682614 -0.544614 0.000246376 
}

frame 2 {
	-0.484775 
	-0.083589 0.159056 0.379752 
	-0.0621219 -0.549841 0.00940141 
}

frame 3 {
	-0.49551 
	-0.0831451 0.165212 0.397568 
	-0.0564274 -0.555411 0.0181163 
}

frame 4 {
	-0.484775 
	-0.083589 0.159056 0.379752 
	-0.0621219 -0.549841 0.00940141 
}

frame 5 {
	-0.473967 
	-0.0838074 0.152949 0.361708 
	-0.0682613 -0.544614 0.00024637 
}

frame 6 {
	-0.463086 
	-0.0838024 0.146896 0.343445 
	-0.0748243 -0.539762 -0.00932688 
}

frame 7 {
	-0.452135 
	-0.0835762 0.140904 0.324971 
	-0.0817875 -0.535313 -0.0192943 
}

