\relax 
\@writefile{toc}{\contentsline {section}{\numberline {1}Prologue}{2}}
\@writefile{toc}{\contentsline {section}{\numberline {2}Engine Structure}{2}}
\@writefile{lof}{\contentsline {figure}{\numberline {1}{\ignorespaces UEA Engine Diagram}}{2}}
\@writefile{toc}{\contentsline {section}{\numberline {3}Scenegraph}{3}}
\@writefile{toc}{\contentsline {subsection}{\numberline {3.1}SceneNode}{3}}
\@writefile{lof}{\contentsline {figure}{\numberline {2}{\ignorespaces Collider base class}}{3}}
\newlabel{fig:figure3}{{2}{3}}
\@writefile{lof}{\contentsline {figure}{\numberline {3}{\ignorespaces SphereCollider::Collide method}}{3}}
\newlabel{fig:figure4}{{3}{3}}
\@writefile{toc}{\contentsline {subsection}{\numberline {3.2}Scene}{3}}
\@writefile{lof}{\contentsline {figure}{\numberline {4}{\ignorespaces Updating the scene}}{3}}
\@writefile{toc}{\contentsline {subsubsection}{\numberline {3.2.1}SceneNodeBehaviour}{4}}
\@writefile{lof}{\contentsline {figure}{\numberline {5}{\ignorespaces SceneNodeBehaviour base class}}{4}}
\@writefile{toc}{\contentsline {subsubsection}{\numberline {3.2.2}Collisions}{4}}
\@writefile{lof}{\contentsline {figure}{\numberline {6}{\ignorespaces CollisionCombinations class declaration}}{4}}
\@writefile{lof}{\contentsline {figure}{\numberline {7}{\ignorespaces Scene handling collisions}}{5}}
\@writefile{toc}{\contentsline {section}{\numberline {4}Resource Management}{5}}
\@writefile{lof}{\contentsline {figure}{\numberline {8}{\ignorespaces Resource Manager Flow Chart}}{6}}
\@writefile{lof}{\contentsline {figure}{\numberline {9}{\ignorespaces Invalidating the resources}}{6}}
\newlabel{fig:figure3}{{9}{6}}
\@writefile{lof}{\contentsline {figure}{\numberline {10}{\ignorespaces Restoring the resources}}{6}}
\newlabel{fig:figure4}{{10}{6}}
\@writefile{toc}{\contentsline {section}{\numberline {5}Rendering}{6}}
\@writefile{toc}{\contentsline {subsection}{\numberline {5.1}Shader}{7}}
\@writefile{lof}{\contentsline {figure}{\numberline {11}{\ignorespaces Shader Compilation}}{7}}
\@writefile{lof}{\contentsline {figure}{\numberline {12}{\ignorespaces Shader::SetUniformMatrix4v method}}{7}}
\@writefile{toc}{\contentsline {subsection}{\numberline {5.2}Texture}{7}}
\@writefile{toc}{\contentsline {subsection}{\numberline {5.3}Material}{8}}
\@writefile{lof}{\contentsline {figure}{\numberline {13}{\ignorespaces User Interface material definition file}}{8}}
\@writefile{toc}{\contentsline {subsection}{\numberline {5.4}Mesh}{8}}
\@writefile{lof}{\contentsline {figure}{\numberline {14}{\ignorespaces Populating the submesh VBOs}}{8}}
\@writefile{toc}{\contentsline {subsubsection}{\numberline {5.4.1}Animation}{8}}
\@writefile{lof}{\contentsline {figure}{\numberline {15}{\ignorespaces Calculating the joints bone matrices}}{9}}
\@writefile{lof}{\contentsline {figure}{\numberline {16}{\ignorespaces Skinning on the GPU}}{9}}
\@writefile{toc}{\contentsline {subsection}{\numberline {5.5}Renderers}{9}}
\@writefile{toc}{\contentsline {subsubsection}{\numberline {5.5.1}MeshRenderer}{9}}
\@writefile{lof}{\contentsline {figure}{\numberline {17}{\ignorespaces MeshRenderer pipeline}}{10}}
\@writefile{toc}{\contentsline {subsubsection}{\numberline {5.5.2}ParticleRenderer}{10}}
\@writefile{lof}{\contentsline {figure}{\numberline {18}{\ignorespaces Billboarding the particle}}{10}}
\@writefile{toc}{\contentsline {subsubsection}{\numberline {5.5.3}UIRenderer}{10}}
\@writefile{lof}{\contentsline {figure}{\numberline {19}{\ignorespaces Setting up an orthographic projection}}{10}}
\@writefile{lof}{\contentsline {figure}{\numberline {20}{\ignorespaces Parsing the texture atlas XML file}}{11}}
\@writefile{lof}{\contentsline {figure}{\numberline {21}{\ignorespaces Setting up texture coordinates for a widget state}}{11}}
\@writefile{toc}{\contentsline {section}{\numberline {6}3rd party code and ideas used}{11}}
