MD5Version 10
commandline "x:-90,y:180"

numFrames 30
numJoints 39
frameRate 30
numAnimatedComponents 83

hierarchy {
	"Root"	-1 62 0	//  ( Ty Tz Qx Qy Qz )
	"LHip"	0 32 5	// Root ( Qz )
	"LThigh"	1 56 6	// LHip ( Qx Qy Qz )
	"LCalf"	2 56 9	// LThigh ( Qx Qy Qz )
	"LFoot"	3 56 12	// LCalf ( Qx Qy Qz )
	"RHip"	0 24 15	// Root ( Qx Qy )
	"RThigh"	5 56 17	// RHip ( Qx Qy Qz )
	"RCalf"	6 56 20	// RThigh ( Qx Qy Qz )
	"RFoot"	7 56 23	// RCalf ( Qx Qy Qz )
	"Spine1"	0 56 26	// Root ( Qx Qy Qz )
	"Spine2"	9 56 29	// Spine1 ( Qx Qy Qz )
	"Spine3"	10 32 32	// Spine2 ( Qz )
	"Spine4"	11 32 33	// Spine3 ( Qz )
	"Neck"	12 56 34	// Spine4 ( Qx Qy Qz )
	"Head"	13 56 37	// Neck ( Qx Qy Qz )
	"LShoulder"	12 32 40	// Spine4 ( Qz )
	"LUpperArm"	15 56 41	// LShoulder ( Qx Qy Qz )
	"LLowerArm"	16 56 44	// LUpperArm ( Qx Qy Qz )
	"LHand"	17 56 47	// LLowerArm ( Qx Qy Qz )
	"LThumb0"	18 0 0	// LHand
	"LThumb1"	19 56 50	// LThumb0 ( Qx Qy Qz )
	"LIndex0"	18 0 0	// LHand
	"LIndex1"	21 0 0	// LIndex0
	"LMiddle0"	18 0 0	// LHand
	"LMiddle1"	23 0 0	// LMiddle0
	"LPinky0"	18 0 0	// LHand
	"LPinky1"	25 0 0	// LPinky0
	"RShoulder"	12 24 53	// Spine4 ( Qx Qy )
	"RUpperArm"	27 58 55	// RShoulder ( Ty Qx Qy Qz )
	"RLowerArm"	28 56 59	// RUpperArm ( Qx Qy Qz )
	"RHand"	29 0 0	// RLowerArm
	"RThumb0"	30 56 62	// RHand ( Qx Qy Qz )
	"RThumb1"	31 0 0	// RThumb0
	"RIndex0"	30 56 65	// RHand ( Qx Qy Qz )
	"RIndex1"	33 56 68	// RIndex0 ( Qx Qy Qz )
	"RMiddle0"	30 56 71	// RHand ( Qx Qy Qz )
	"RMiddle1"	35 56 74	// RMiddle0 ( Qx Qy Qz )
	"RPinky0"	30 56 77	// RHand ( Qx Qy Qz )
	"RPinky1"	37 56 80	// RPinky0 ( Qx Qy Qz )
}

bounds {
	( -21.019 -15.1306 -32.6797 ) ( 22.9624 28.1092 82.9097 )
	( -21.0025 -14.1237 -32.772 ) ( 20.8421 30.6628 82.5771 )
	( -21.0003 -14.0478 -32.783 ) ( 20.6475 32.5947 82.2616 )
	( -21.0084 -14.3245 -32.7416 ) ( 20.6557 33.8659 81.817 )
	( -21.0217 -14.7913 -32.6622 ) ( 20.6689 34.6404 81.4094 )
	( -21.0351 -15.2911 -32.6368 ) ( 20.682 35.0175 81.0366 )
	( -21.0449 -15.6831 -32.6085 ) ( 20.6916 35.1258 80.7364 )
	( -21.0487 -15.8414 -32.5945 ) ( 20.6952 35.1292 80.6175 )
	( -21.1053 -17.0932 -32.7894 ) ( 20.7511 33.6631 80.689 )
	( -21.2656 -19.8873 -33.5584 ) ( 20.905 30.0714 80.7614 )
	( -21.46 -24.4531 -34.5723 ) ( 21.0841 25.611 80.7448 )
	( -21.6408 -29.9634 -35.0257 ) ( 21.2339 21.5644 80.2419 )
	( -21.6208 -33.8737 -34.1036 ) ( 21.183 19.5487 79.134 )
	( -21.3482 -34.7804 -31.9918 ) ( 20.8915 20.4925 77.4132 )
	( -20.8751 -35.2816 -30.8484 ) ( 20.4152 21.4491 73.3802 )
	( -20.52 -37.7654 -31.6893 ) ( 19.8879 20.2405 67.4164 )
	( -20.5194 -40.4951 -33.3706 ) ( 19.499 18.3628 62.0814 )
	( -20.5192 -41.7812 -34.2478 ) ( 19.3587 17.4043 59.8138 )
	( -20.5166 -42.9009 -34.3815 ) ( 19.515 15.8178 60.5643 )
	( -20.5092 -45.7641 -34.428 ) ( 19.9571 11.6405 63.1685 )
	( -21.1899 -49.7097 -33.8386 ) ( 20.6519 5.65251 67.6218 )
	( -22.0814 -53.8793 -32.067 ) ( 21.4567 -1.73867 73.4097 )
	( -22.9412 -57.9891 -33.5931 ) ( 22.2095 -9.80041 75.2488 )
	( -23.6221 -62.3426 -34.7586 ) ( 22.7706 -11.7723 75.6746 )
	( -24.0114 -73.3591 -35.4203 ) ( 23.0718 -11.4776 73.8994 )
	( -24.0735 -84.5014 -35.4807 ) ( 23.075 -10.7215 69.2492 )
	( -23.8868 -97.1501 -34.7735 ) ( 22.8022 -9.33283 61.3975 )
	( -23.5165 -107.405 -33.0275 ) ( 22.3529 -7.38039 50.2804 )
	( -23.134 -115.86 -33.9568 ) ( 21.8989 -5.32369 32.8927 )
	( -22.8466 -121.52 -33.7524 ) ( 21.6247 -3.11578 14.5628 )
}

baseframe {
	( 0.0358182 20.0283 28.855 ) ( -0.5 0.5 -0.5 )
	( 4.15336 -0.000320375 -0.000190735 ) ( -0.000159272 0.000160559 0.709947 )
	( 7.59215 -0.00038147 0.000190735 ) ( -0.000725172 0.000535302 0.593892 )
	( 15.5915 0.000190735 0.0 ) ( -0.000239344 0.000103374 0.0431509 )
	( 17.2938 0.000286102 0.0 ) ( -0.450944 0.544655 -0.44165 )
	( 4.15336 0.00407075 0.000572205 ) ( -0.704255 -0.709947 0.000373139 )
	( 7.59215 0.0 0.000190735 ) ( -0.000725172 0.000535302 0.593892 )
	( 15.5915 0.000190735 0.00038147 ) ( -0.000239343 0.000103423 0.0431509 )
	( 17.2938 0.000286102 0.0 ) ( 0.450945 -0.544655 -0.441651 )
	( 4.15336 -0.000372529 -0.000190735 ) ( 0.000238419 -0.000505409 0.000211954 )
	( 9.68327 -0.000200421 0.000190735 ) ( 0.000187348 -0.000151787 0.00437497 )
	( 8.70644 -0.000178814 0.0 ) ( -0.00111022 0.000142104 0.000514507 )
	( 7.82788 -0.000113249 0.000190735 ) ( 0.000166524 0.000999903 -0.0105957 )
	( 7.26881 0.000596046 0.0 ) ( -0.000943623 0.000178417 0.011904 )
	( 6.23149 0.000715256 0.0 ) ( 0.000783229 -0.000710267 -0.000854739 )
	( 7.26881 0.000596046 0.0 ) ( -0.00015764 0.000157242 0.706214 )
	( 11.8222 0.0 0.0 ) ( 0.000557218 0.000462808 0.535422 )
	( 13.341 -0.000259399 0.000190735 ) ( -0.000718649 0.000123369 0.0171679 )
	( 14.6184 0.000762939 0.000190735 ) ( -0.707083 -0.00578997 -0.00578997 )
	( 4.84209 2.58731 -0.00038147 ) ( -0.357836 0.349218 -0.60486 )
	( 2.33052 0.000419617 0.0 ) ( -0.00653959 0.53726 -0.0102636 )
	( 8.25927 2.14646 0.0 ) ( 0.00831325 0.382593 -0.0200688 )
	( 2.77593 0.000190735 -0.000953674 ) ( 0.0106477 0.707027 0.0106477 )
	( 8.90236 -0.184731 0.0 ) ( 0.00584473 0.461712 -0.0112266 )
	( 3.1761 0.000686646 0.0 ) ( 0.00895715 0.70705 0.00895715 )
	( 7.41579 -2.4693 0.0 ) ( -0.0101152 0.461638 0.0194322 )
	( 2.77593 0.000190735 0.0 ) ( -0.0416077 0.705882 0.0106477 )
	( 7.27002 0.110125 0.000762939 ) ( 0.715716 0.698391 -0.000113782 )
	( 11.8222 -0.000762939 0.0 ) ( 0.000137007 0.000796075 0.571753 )
	( 13.341 -0.000259399 0.0 ) ( -0.000718652 0.000123369 0.0171679 )
	( 14.6184 0.000762939 0.000190735 ) ( 0.707083 0.00578996 -0.00578996 )
	( 4.09901 2.58669 0.000152588 ) ( 0.273878 -0.267278 -0.645268 )
	( 2.33052 0.000457764 0.000190735 ) ( 0.00365727 -0.300684 -0.0116045 )
	( 6.97201 2.14584 0.000152588 ) ( -0.0100307 -0.46164 -0.0192677 )
	( 2.77593 0.0 0.0 ) ( -0.0111021 -0.737194 0.0101732 )
	( 7.6151 -0.185354 0.000152588 ) ( -0.00632878 -0.49996 -0.0109609 )
	( 3.1761 0.000705719 0.0 ) ( -0.00970373 -0.765983 0.00814239 )
	( 6.12853 -2.46992 0.000114441 ) ( 0.010953 -0.49988 0.0189725 )
	( 2.77594 0.0 0.0 ) ( 0.0416075 -0.705882 0.0106482 )
}

frame 0 {
	21.98 28.561 -0.5 0.5 -0.5 
	0.709947 
	-0.000725172 0.000535302 0.593892 
	0.00109865 0.025437 0.0431369 
	-0.444192 0.550169 -0.446062 
	-0.704255 -0.709947 
	-0.000725172 0.000535302 0.593892 
	-0.00108557 -0.0251341 0.0431372 
	0.442219 -0.551749 -0.447287 
	-0.000691996 -0.00438969 0.000211951 
	0.000115411 0.00263796 0.00437495 
	0.000514507 
	-0.0105957 
	-0.00014883 -0.0125016 0.011903 
	0.000135157 -0.0158126 -0.000854632 
	0.706214 
	0.0314023 0.0495346 0.5345 
	0.000435515 0.0226819 0.159868 
	-0.754741 0.00223085 0.000803651 
	-0.00653959 0.53726 -0.0102636 
	0.715747 0.698359 
	0.0 -0.0262687 -0.0399913 0.548385 
	0.153901 -0.0796399 0.240441 
	0.273878 -0.267278 -0.645268 
	-0.0100306 -0.46164 -0.0192679 
	-0.0111021 -0.737194 0.0101732 
	-0.00632867 -0.49996 -0.0109611 
	-0.00970373 -0.765983 0.00814239 
	0.010953 -0.49988 0.0189725 
	0.0416075 -0.705882 0.0106482 
}

frame 1 {
	22.8961 28.423 -0.5 0.5 -0.5 
	0.709947 
	-0.000725172 0.000535302 0.593892 
	0.00161414 0.0373721 0.0431207 
	-0.440986 0.552713 -0.448135 
	-0.704255 -0.709947 
	-0.000725172 0.000535302 0.593892 
	-0.00159493 -0.0369273 0.0431214 
	0.438071 -0.555014 -0.44993 
	-0.000198982 -0.0105128 0.00021194 
	0.000169584 0.00387618 0.00437493 
	0.000514507 
	-0.0105957 
	-0.000315384 -0.0264921 0.0118998 
	0.000268015 -0.0313562 -0.000854319 
	0.706214 
	0.0621733 0.0980733 0.5318 
	0.00718215 0.0444025 0.296637 
	-0.797918 0.0109476 0.0061384 
	-0.00653958 0.53726 -0.0102636 
	0.715778 0.698328 
	0.000762939 -0.0498813 -0.080599 0.523884 
	0.257395 -0.218482 0.416477 
	0.273878 -0.267278 -0.645268 
	-0.0100309 -0.46164 -0.0192675 
	-0.011102 -0.737194 0.0101732 
	-0.00632892 -0.49996 -0.0109606 
	-0.00970372 -0.765983 0.00814238 
	0.010953 -0.49988 0.0189725 
	0.0416075 -0.705882 0.0106481 
}

frame 2 {
	23.0156 28.405 -0.5 0.5 -0.5 
	0.709947 
	-0.000725172 0.000535302 0.593892 
	0.00168136 0.0389285 0.0431181 
	-0.440567 0.553042 -0.448406 
	-0.704255 -0.709947 
	-0.000725172 0.000535302 0.593892 
	-0.00166136 -0.0384652 0.0431189 
	0.437527 -0.555436 -0.450275 
	-0.000350349 -0.0176541 0.000211917 
	0.000176649 0.00403769 0.00437493 
	0.000514508 
	-0.0105957 
	-0.000488036 -0.0409949 0.0118939 
	0.000393692 -0.0460599 -0.000853832 
	0.706214 
	0.0911063 0.143713 0.527614 
	0.0191421 0.063222 0.420209 
	-0.835224 0.0198447 0.0100655 
	-0.00653972 0.53726 -0.0102638 
	0.715807 0.698298 
	0.000762939 -0.0701145 -0.120041 0.499461 
	0.294528 -0.382135 0.52563 
	0.273878 -0.267278 -0.645268 
	-0.0100307 -0.46164 -0.0192677 
	-0.011102 -0.737194 0.0101732 
	-0.00632864 -0.49996 -0.0109611 
	-0.00970371 -0.765983 0.0081424 
	0.010953 -0.49988 0.0189725 
	0.0416075 -0.705882 0.0106482 
}

frame 3 {
	22.5775 28.471 -0.5 0.5 -0.5 
	0.709947 
	-0.000725172 0.000535302 0.593892 
	0.00143486 0.0332213 0.043127 
	-0.442104 0.551831 -0.447414 
	-0.704255 -0.709947 
	-0.000725172 0.000535302 0.593892 
	-0.00141778 -0.0328258 0.0431276 
	0.439517 -0.553883 -0.449011 
	-0.000508142 -0.0250987 0.000211881 
	0.000150741 0.0034455 0.00437494 
	0.000514507 
	-0.0105957 
	-0.000655171 -0.0550342 0.0118859 
	0.000507328 -0.0593547 -0.000853232 
	0.706214 
	0.117052 0.18464 0.522471 
	0.0343069 0.077877 0.525118 
	-0.865856 0.0283441 0.0126288 
	-0.00653959 0.53726 -0.0102636 
	0.715834 0.698271 
	0.0 -0.086587 -0.156437 0.476461 
	0.272 -0.535752 0.570584 
	0.273878 -0.267277 -0.645268 
	-0.0100307 -0.46164 -0.0192677 
	-0.0111021 -0.737194 0.0101732 
	-0.0063289 -0.49996 -0.0109607 
	-0.00970373 -0.765983 0.0081424 
	0.010953 -0.49988 0.0189725 
	0.0416075 -0.705882 0.0106481 
}

frame 4 {
	21.8207 28.585 -0.5 0.5 -0.5 
	0.709947 
	-0.000725172 0.000535302 0.593892 
	0.00100898 0.0233609 0.0431391 
	-0.444747 0.549724 -0.445701 
	-0.704255 -0.709947 
	-0.000725172 0.000535302 0.593892 
	-0.000996971 -0.0230827 0.0431393 
	0.442937 -0.551177 -0.446827 
	-0.000657209 -0.0321314 0.000211837 
	0.00010599 0.00242262 0.00437495 
	0.000514507 
	-0.0105957 
	-0.000805204 -0.0676369 0.0118767 
	0.000604083 -0.0706746 -0.000852602 
	0.706214 
	0.138936 0.219161 0.517082 
	0.0501593 0.0880074 0.608089 
	-0.889531 0.0358579 0.0140425 
	-0.00653945 0.53726 -0.0102634 
	0.715856 0.698248 
	0.000762939 -0.0992118 -0.187887 0.456278 
	0.212733 -0.65639 0.570201 
	0.273878 -0.267278 -0.645268 
	-0.0100307 -0.46164 -0.0192677 
	-0.0111021 -0.737194 0.0101732 
	-0.00632878 -0.49996 -0.0109609 
	-0.00970373 -0.765983 0.0081424 
	0.010953 -0.49988 0.0189725 
	0.0416075 -0.705882 0.0106482 
}

frame 5 {
	20.9843 28.711 -0.5 0.5 -0.5 
	0.709947 
	-0.000725172 0.000535302 0.593892 
	0.000538157 0.01246 0.0431475 
	-0.44765 0.547372 -0.44381 
	-0.704255 -0.709947 
	-0.000725172 0.000535302 0.593892 
	-0.000531753 -0.0123116 0.0431476 
	0.44669 -0.548153 -0.444412 
	-0.000782409 -0.0380381 0.000211792 
	0.000565282 0.00129207 0.00437496 
	0.000514507 
	-0.0105957 
	-0.000926598 -0.077834 0.0118678 
	0.000679141 -0.0794559 -0.000852036 
	0.706214 
	0.155757 0.245695 0.512266 
	0.0641044 0.0940917 0.667809 
	-0.906329 0.0418269 0.0146384 
	-0.00653983 0.53726 -0.010264 
	0.715874 0.69823 
	0.0 -0.108101 -0.212528 0.440288 
	0.144744 -0.736701 0.548606 
	0.273878 -0.267278 -0.645268 
	-0.0100306 -0.46164 -0.0192679 
	-0.011102 -0.737194 0.0101732 
	-0.00632864 -0.49996 -0.0109611 
	-0.00970373 -0.765983 0.0081424 
	0.010953 -0.49988 0.0189725 
	0.0416075 -0.705882 0.0106482 
}

frame 6 {
	20.3072 28.813 -0.5 0.5 -0.5 
	0.709947 
	-0.000725172 0.000535302 0.593892 
	0.000156964 0.00363424 0.0431506 
	-0.449986 0.545451 -0.44228 
	-0.704255 -0.709947 
	-0.000725172 0.000535302 0.593892 
	-0.0001551 -0.00359096 0.0431506 
	0.449707 -0.54568 -0.442456 
	-0.000868616 -0.0421052 0.000211756 
	0.000164876 0.000376848 0.00437497 
	0.000514507 
	-0.0105957 
	-0.00100786 -0.0846597 0.0118612 
	0.000727698 -0.0851369 -0.000851635 
	0.706214 
	0.166558 0.262732 0.508857 
	0.0738032 0.0971078 0.704075 
	-0.916453 0.0457407 0.0147865 
	-0.00653959 0.53726 -0.0102636 
	0.715885 0.698218 
	-0.000762939 -0.113425 -0.228565 0.429807 
	0.0923006 -0.780468 0.526439 
	0.273878 -0.267278 -0.645268 
	-0.0100307 -0.46164 -0.0192677 
	-0.0111021 -0.737194 0.0101732 
	-0.00632878 -0.49996 -0.0109609 
	-0.00970373 -0.765983 0.00814239 
	0.010953 -0.49988 0.0189725 
	0.0416074 -0.705882 0.0106481 
}

frame 7 {
	20.0283 28.855 -0.5 0.5 -0.5 
	0.709947 
	-0.000725172 0.000535302 0.593892 
	-0.000239344 0.000103374 0.0431509 
	-0.450944 0.544655 -0.44165 
	-0.704255 -0.709947 
	-0.000725172 0.000535302 0.593892 
	-0.000239343 0.000103423 0.0431509 
	0.450945 -0.544655 -0.441651 
	-0.000900712 -0.0436194 0.000211742 
	0.000814901 0.000186263 0.00437497 
	0.000514507 
	-0.0105957 
	-0.0010375 -0.0871496 0.0118587 
	0.000744951 -0.0871557 -0.000851486 
	0.706214 
	0.17038 0.268761 0.50759 
	0.0773661 0.097995 0.716491 
	-0.919908 0.0471398 0.0147938 
	-0.00653946 0.53726 -0.0102634 
	0.715889 0.698214 
	0.0 -0.115235 -0.23428 0.426058 
	0.0723182 -0.794276 0.517257 
	0.273878 -0.267277 -0.645268 
	-0.0100308 -0.46164 -0.0192675 
	-0.011102 -0.737194 0.0101732 
	-0.0063289 -0.49996 -0.0109606 
	-0.00970372 -0.765983 0.0081424 
	0.010953 -0.49988 0.0189725 
	0.0416075 -0.705882 0.0106481 
}

frame 8 {
	18.0457 29.1537 -0.5 0.5 -0.5 
	0.709947 
	-0.000725172 0.000535302 0.593892 
	-0.000904067 -0.0209317 0.0431414 
	-0.456421 0.540021 -0.438028 
	-0.704255 -0.709947 
	-0.000725172 0.000535302 0.593892 
	0.000893297 0.0206825 0.0431416 
	0.458009 -0.538678 -0.437008 
	-0.00096199 -0.0465104 0.000211714 
	-0.000949669 -0.00217066 0.00437496 
	0.000514507 
	-0.0105957 
	-0.0010698 -0.0898627 0.0118558 
	0.000744952 -0.0871557 -0.000851486 
	0.706214 
	0.17038 0.268761 0.50759 
	0.0773661 0.0979949 0.716491 
	-0.919908 0.0471398 0.0147938 
	-0.00653959 0.53726 -0.0102636 
	0.715889 0.698214 
	0.0 -0.115235 -0.23428 0.426058 
	0.0723183 -0.794276 0.517257 
	0.273878 -0.267278 -0.645268 
	-0.0100307 -0.46164 -0.0192677 
	-0.0111021 -0.737194 0.0101732 
	-0.0063288 -0.49996 -0.0109609 
	-0.0097037 -0.765983 0.0081424 
	0.010953 -0.49988 0.0189725 
	0.0416075 -0.705882 0.0106482 
}

frame 9 {
	13.0889 29.9003 -0.5 0.5 -0.5 
	0.709947 
	-0.000725172 0.000535302 0.593892 
	-0.00335482 -0.0776737 0.0430203 
	-0.470914 0.527008 -0.428231 
	-0.704255 -0.709947 
	-0.000725172 0.000535302 0.593892 
	0.00331494 0.0767505 0.0430233 
	0.476647 -0.521828 -0.42439 
	-0.000112828 -0.0543553 0.000211628 
	-0.000352731 -0.00806239 0.00437483 
	0.000514507 
	-0.0105957 
	-0.00115743 -0.0972234 0.0118476 
	0.000744956 -0.0871557 -0.000851486 
	0.706214 
	0.17038 0.268761 0.50759 
	0.0773661 0.0979949 0.716491 
	-0.919908 0.0471398 0.0147938 
	-0.00653959 0.53726 -0.0102636 
	0.715889 0.698214 
	0.0 -0.115235 -0.23428 0.426058 
	0.0723182 -0.794276 0.517256 
	0.273878 -0.267278 -0.645268 
	-0.0100307 -0.46164 -0.0192677 
	-0.0111021 -0.737194 0.0101732 
	-0.00632893 -0.49996 -0.0109607 
	-0.0097037 -0.765983 0.0081424 
	0.010953 -0.49988 0.0189725 
	0.0416075 -0.705882 0.0106482 
}

frame 10 {
	6.64523 30.871 -0.5 0.5 -0.5 
	0.709947 
	-0.000725172 0.000535302 0.593892 
	-0.00694439 -0.160783 0.0425884 
	-0.491256 0.506699 -0.413909 
	-0.704255 -0.709947 
	-0.000725172 0.000535302 0.593892 
	0.0068624 0.158885 0.0426017 
	0.502627 -0.495377 -0.405774 
	-0.00013732 -0.06591 0.000211478 
	-0.000732567 -0.0167444 0.00437435 
	0.000514507 
	-0.0105957 
	-0.00128644 -0.108061 0.0118342 
	0.000744955 -0.0871557 -0.000851487 
	0.706214 
	0.17038 0.268761 0.50759 
	0.0773661 0.097995 0.716491 
	-0.919908 0.0471398 0.0147938 
	-0.00653972 0.53726 -0.0102638 
	0.715889 0.698214 
	0.0 -0.115235 -0.23428 0.426058 
	0.0723182 -0.794276 0.517257 
	0.273878 -0.267278 -0.645268 
	-0.0100307 -0.46164 -0.0192677 
	-0.0111021 -0.737194 0.0101732 
	-0.0063289 -0.49996 -0.0109607 
	-0.00970372 -0.765983 0.0081424 
	0.010953 -0.49988 0.0189725 
	0.0416075 -0.705882 0.0106482 
}

frame 11 {
	0.201507 31.8416 -0.5 0.5 -0.5 
	0.709947 
	-0.000725172 0.000535302 0.593892 
	-0.0112352 -0.260128 0.0416625 
	-0.514259 0.480294 -0.396738 
	0.704255 0.709947 
	-0.000725172 0.000535302 0.593892 
	0.0111045 0.257101 0.0416976 
	0.531675 -0.460786 -0.383193 
	-0.000167036 -0.0799287 0.000211257 
	-0.000119372 -0.027285 0.00437334 
	0.000514508 
	-0.0105957 
	-0.0014429 -0.121204 0.0118162 
	0.000744953 -0.0871557 -0.000851486 
	0.706214 
	0.17038 0.268761 0.50759 
	0.0773661 0.097995 0.716491 
	-0.919908 0.0471398 0.0147938 
	-0.00653959 0.53726 -0.0102636 
	0.715889 0.698214 
	0.0 -0.115235 -0.23428 0.426058 
	0.0723181 -0.794276 0.517256 
	0.273878 -0.267277 -0.645268 
	-0.0100308 -0.46164 -0.0192677 
	-0.0111021 -0.737194 0.0101732 
	-0.00632868 -0.49996 -0.0109611 
	-0.00970372 -0.765983 0.00814241 
	0.010953 -0.49988 0.0189725 
	0.0416075 -0.705882 0.0106481 
}

frame 12 {
	-4.7552 32.5883 -0.5 0.5 -0.5 
	0.709947 
	-0.000725172 0.000535302 0.593892 
	-0.0157711 -0.365148 0.0401655 
	-0.537079 0.449496 -0.37838 
	-0.704255 -0.709947 
	-0.000725172 0.000535302 0.593892 
	0.015592 0.361 0.0402354 
	0.560002 -0.420263 -0.358724 
	-0.000199336 -0.0951663 0.000210969 
	-0.000169541 -0.0387522 0.00437168 
	0.000514508 
	-0.0105957 
	-0.00161288 -0.135482 0.0117942 
	0.000744955 -0.0871557 -0.000851486 
	0.706214 
	0.17038 0.268761 0.50759 
	0.0773661 0.097995 0.716491 
	-0.919908 0.0471398 0.0147938 
	-0.00653958 0.53726 -0.0102636 
	0.715889 0.698214 
	0.0 -0.115235 -0.23428 0.426058 
	0.0723182 -0.794276 0.517257 
	0.273878 -0.267278 -0.645268 
	-0.0100307 -0.46164 -0.0192677 
	-0.0111021 -0.737194 0.0101732 
	-0.00632866 -0.49996 -0.0109611 
	-0.00970374 -0.765983 0.00814239 
	0.010953 -0.49988 0.0189725 
	0.0416076 -0.705882 0.0106481 
}

frame 13 {
	-6.73788 32.8869 -0.5 0.5 -0.5 
	0.709947 
	-0.000725172 0.000535302 0.593892 
	-0.0201138 -0.465692 0.0381763 
	-0.557488 0.41668 -0.360422 
	-0.704255 -0.709947 
	-0.000725172 0.000535302 0.593892 
	0.019893 0.46058 0.0382918 
	0.584734 -0.376978 -0.33445 
	-0.000231589 -0.110382 0.000210633 
	-0.000219688 -0.0502143 0.00436945 
	0.000514507 
	-0.0105957 
	-0.00178252 -0.149731 0.0117697 
	0.000744961 -0.0871557 -0.000851486 
	0.706214 
	0.17038 0.268761 0.50759 
	0.0773661 0.0979949 0.716491 
	-0.919908 0.0471398 0.0147938 
	-0.00653972 0.53726 -0.0102638 
	0.715889 0.698214 
	0.0 -0.115235 -0.23428 0.426058 
	0.0723182 -0.794276 0.517257 
	0.273878 -0.267277 -0.645268 
	-0.0100307 -0.46164 -0.0192677 
	-0.0111021 -0.737194 0.0101732 
	-0.00632879 -0.49996 -0.0109609 
	-0.00970373 -0.765983 0.00814238 
	0.010953 -0.49988 0.0189725 
	0.0416075 -0.705882 0.0106482 
}

frame 14 {
	-8.22534 30.997 -0.5 0.5 -0.5 
	0.709947 
	-0.000725172 0.000535302 0.593892 
	-0.0238882 -0.553082 0.0359353 
	-0.574034 0.384867 -0.344319 
	-0.704255 -0.709947 
	-0.000725172 0.000535302 0.593892 
	0.0236365 0.547255 0.0361014 
	0.604153 -0.334995 -0.312381 
	-0.000261179 -0.124341 0.00021028 
	-0.000265744 -0.0607413 0.00436689 
	0.000514507 
	-0.0105957 
	-0.00193809 -0.162799 0.0117451 
	0.000744957 -0.0871557 -0.000851486 
	0.706214 
	0.17038 0.268761 0.50759 
	0.0773661 0.097995 0.716491 
	-0.919908 0.0471398 0.0147938 
	-0.00653959 0.53726 -0.0102636 
	0.715889 0.698214 
	-0.00038147 -0.115235 -0.23428 0.426058 
	0.0723182 -0.794276 0.517257 
	0.273878 -0.267277 -0.645268 
	-0.0100307 -0.46164 -0.0192677 
	-0.0111021 -0.737194 0.0101732 
	-0.00632891 -0.49996 -0.0109607 
	-0.00970375 -0.765983 0.00814241 
	0.010953 -0.49988 0.0189725 
	0.0416075 -0.705882 0.0106481 
}

frame 15 {
	-11.4977 26.8392 -0.5 0.5 -0.5 
	0.709947 
	-0.000725172 0.000535302 0.593892 
	-0.0268126 -0.620791 0.0338095 
	-0.586023 0.357562 -0.331372 
	-0.704255 -0.709947 
	-0.000725172 0.000535302 0.593892 
	0.0265418 0.61452 0.0340225 
	0.61769 -0.29899 -0.294419 
	-0.00028551 -0.135818 0.000209958 
	-0.00030365 -0.0694055 0.00436442 
	0.000514507 
	-0.0105957 
	-0.00206594 -0.173539 0.0117233 
	0.000744956 -0.0871557 -0.000851487 
	0.706214 
	0.17038 0.268761 0.50759 
	0.0773661 0.097995 0.716491 
	-0.919908 0.0471398 0.0147938 
	-0.00653959 0.53726 -0.0102636 
	0.715889 0.698214 
	0.0 -0.115235 -0.23428 0.426058 
	0.0723182 -0.794276 0.517257 
	0.273878 -0.267277 -0.645268 
	-0.0100307 -0.46164 -0.0192677 
	-0.011102 -0.737194 0.0101732 
	-0.00632866 -0.49996 -0.0109611 
	-0.00970372 -0.765983 0.0081424 
	0.010953 -0.49988 0.0189725 
	0.0416075 -0.705882 0.0106482 
}

frame 16 {
	-14.7701 22.6813 -0.5 0.5 -0.5 
	0.709947 
	-0.000725172 0.000535301 0.593892 
	-0.028691 -0.664282 0.0322307 
	-0.593298 0.338502 -0.32276 
	-0.704255 -0.709947 
	-0.000725172 0.000535302 0.593892 
	0.0284108 0.657793 0.032478 
	0.625585 -0.273889 -0.282354 
	-0.000301998 -0.143596 0.000209723 
	-0.000329359 -0.0752819 0.00436255 
	0.000514508 
	-0.0105957 
	-0.00215256 -0.180815 0.0117077 
	0.000744955 -0.0871557 -0.000851486 
	0.706214 
	0.17038 0.268761 0.50759 
	0.0773661 0.0979949 0.716491 
	-0.919908 0.0471398 0.0147938 
	-0.00653946 0.53726 -0.0102634 
	0.715889 0.698214 
	-0.00038147 -0.115235 -0.23428 0.426058 
	0.0723182 -0.794276 0.517257 
	0.273878 -0.267277 -0.645268 
	-0.0100307 -0.46164 -0.0192677 
	-0.0111021 -0.737194 0.0101732 
	-0.00632879 -0.49996 -0.0109609 
	-0.00970373 -0.765983 0.0081424 
	0.010953 -0.49988 0.0189725 
	0.0416074 -0.705882 0.0106482 
}

frame 17 {
	-16.2576 20.7914 -0.5 0.5 -0.5 
	0.709947 
	-0.000725172 0.000535302 0.593892 
	-0.02936 -0.67977 0.0316225 
	-0.595801 0.331376 -0.319624 
	-0.704255 -0.709947 
	-0.000725172 0.000535302 0.593892 
	0.029077 0.673219 0.0318829 
	0.628227 -0.264515 -0.277936 
	-0.000308068 -0.146459 0.000209634 
	-0.000338828 -0.0774462 0.00436183 
	0.000514507 
	-0.0105957 
	-0.00218445 -0.183493 0.0117018 
	0.00074495 -0.0871557 -0.000851486 
	0.706214 
	0.17038 0.268761 0.50759 
	0.0773661 0.097995 0.716491 
	-0.919908 0.0471398 0.0147938 
	-0.0065396 0.53726 -0.0102636 
	0.715889 0.698214 
	0.0 -0.115235 -0.23428 0.426058 
	0.0723182 -0.794276 0.517257 
	0.273878 -0.267278 -0.645268 
	-0.0100308 -0.46164 -0.0192677 
	-0.0111021 -0.737194 0.0101732 
	-0.00632877 -0.49996 -0.0109609 
	-0.00970373 -0.765983 0.0081424 
	0.010953 -0.49988 0.0189725 
	0.0416075 -0.705882 0.0106481 
}

frame 18 {
	-16.8249 20.9635 -0.504932 0.504892 -0.49502 
	0.709947 
	0.00132217 0.00167597 0.593639 
	-0.0288847 -0.668766 0.0320573 
	-0.595801 0.331376 -0.319624 
	-0.704255 -0.709947 
	-0.00132079 -0.00168 0.593652 
	0.0285997 0.662167 0.0323118 
	0.628227 -0.264515 -0.277936 
	-0.000308068 -0.146459 0.000209634 
	-0.000338828 -0.0774463 0.00436183 
	0.000514507 
	-0.0105957 
	-0.00218445 -0.183493 0.0117018 
	0.000744957 -0.0871557 -0.000851486 
	0.706214 
	0.17038 0.268761 0.50759 
	0.0773661 0.097995 0.716491 
	-0.919908 0.0471398 0.0147938 
	-0.0065396 0.53726 -0.0102636 
	0.715889 0.698214 
	0.0 -0.115235 -0.23428 0.426058 
	0.0723182 -0.794276 0.517257 
	0.273878 -0.267278 -0.645268 
	-0.0100307 -0.46164 -0.0192677 
	-0.0111021 -0.737194 0.0101731 
	-0.00632879 -0.49996 -0.0109609 
	-0.00970372 -0.765983 0.00814238 
	0.010953 -0.49988 0.0189725 
	0.0416075 -0.705882 0.0106481 
}

frame 19 {
	-18.1043 21.6921 -0.518921 0.518766 -0.48034 
	0.709947 
	0.00514151 0.00652909 0.59289 
	-0.0275374 -0.637572 0.0332218 
	-0.595801 0.331376 -0.319624 
	-0.704255 -0.709947 
	-0.00513602 -0.00654482 0.592944 
	0.0272474 0.630857 0.03346 
	0.628227 -0.264515 -0.277936 
	-0.000308068 -0.146459 0.000209634 
	-0.000338828 -0.0774462 0.00436183 
	0.000514507 
	-0.0105957 
	-0.00218445 -0.183493 0.0117018 
	0.000744957 -0.0871557 -0.000851486 
	0.706214 
	0.17038 0.268761 0.50759 
	0.0773661 0.0979949 0.716491 
	-0.919908 0.0471398 0.0147938 
	-0.00653959 0.53726 -0.0102636 
	0.715889 0.698214 
	-0.00038147 -0.115235 -0.23428 0.426058 
	0.0723183 -0.794276 0.517256 
	0.273878 -0.267278 -0.645268 
	-0.0100307 -0.46164 -0.0192677 
	-0.0111021 -0.737194 0.0101732 
	-0.00632878 -0.49996 -0.0109609 
	-0.00970372 -0.765983 0.00814239 
	0.010953 -0.49988 0.0189725 
	0.0416075 -0.705882 0.0106482 
}

frame 20 {
	-19.4617 23.2956 -0.540404 0.540066 -0.456061 
	0.709947 
	0.0112294 0.0143025 0.59165 
	-0.0254141 -0.58841 0.0348729 
	-0.595801 0.331376 -0.319624 
	-0.704255 -0.709947 
	-0.0112183 -0.0143362 0.591768 
	0.025118 0.581556 0.0350868 
	0.628227 -0.264515 -0.277936 
	-0.000308068 -0.146459 0.000209634 
	-0.000338828 -0.0774462 0.00436183 
	0.000514507 
	-0.0105957 
	-0.00218445 -0.183493 0.0117018 
	0.000744949 -0.0871557 -0.000851486 
	0.706214 
	0.17038 0.268761 0.50759 
	0.0773661 0.097995 0.716491 
	-0.919908 0.0471398 0.0147938 
	-0.00653959 0.53726 -0.0102636 
	0.715889 0.698214 
	0.0 -0.115235 -0.23428 0.426058 
	0.0723182 -0.794276 0.517257 
	0.273878 -0.267278 -0.645268 
	-0.0100307 -0.46164 -0.0192677 
	-0.0111021 -0.737194 0.0101732 
	-0.00632878 -0.49996 -0.0109609 
	-0.00970372 -0.765983 0.00814239 
	0.010953 -0.49988 0.0189725 
	0.0416075 -0.705882 0.0106482 
}

frame 21 {
	-20.2631 26.0927 -0.567415 0.566833 -0.422048 
	0.709947 
	0.0193491 0.0247435 0.589905 
	-0.0226139 -0.523577 0.0367506 
	-0.595801 0.331376 -0.319624 
	-0.704255 -0.709947 
	-0.0193324 -0.0247996 0.590108 
	0.0223129 0.516611 0.0369341 
	0.628227 -0.264515 -0.277936 
	-0.000308068 -0.146459 0.000209634 
	-0.000338828 -0.0774463 0.00436183 
	0.000514507 
	-0.0105957 
	-0.00218445 -0.183493 0.0117018 
	0.000744954 -0.0871557 -0.000851486 
	0.706214 
	0.17038 0.268761 0.50759 
	0.0773661 0.0979949 0.716491 
	-0.919908 0.0471398 0.0147938 
	-0.00653959 0.53726 -0.0102636 
	0.715889 0.698214 
	0.0 -0.115235 -0.23428 0.426058 
	0.0723182 -0.794276 0.517257 
	0.273878 -0.267278 -0.645268 
	-0.0100308 -0.46164 -0.0192677 
	-0.0111021 -0.737194 0.0101732 
	-0.0063288 -0.49996 -0.0109609 
	-0.00970373 -0.765983 0.00814239 
	0.010953 -0.49988 0.0189725 
	0.0416075 -0.705882 0.0106482 
}

frame 22 {
	-20.5207 25.4003 -0.597665 0.596784 -0.37814 
	0.709947 
	0.0292576 0.0376001 0.587633 
	-0.0192699 -0.446154 0.0386092 
	-0.595801 0.331376 -0.319624 
	-0.704255 -0.709947 
	-0.0292369 -0.0376813 0.587939 
	0.0189669 0.43914 0.0387589 
	0.628227 -0.264515 -0.277936 
	-0.000308068 -0.146459 0.000209634 
	-0.000338828 -0.0774463 0.00436183 
	0.000514507 
	-0.0105957 
	-0.00218445 -0.183493 0.0117018 
	0.000744954 -0.0871557 -0.000851486 
	0.706214 
	0.17038 0.268761 0.50759 
	0.0773661 0.097995 0.716491 
	-0.919908 0.0471398 0.0147938 
	-0.00653959 0.53726 -0.0102636 
	0.715889 0.698214 
	0.0 -0.115235 -0.23428 0.426058 
	0.0723182 -0.794276 0.517257 
	0.273878 -0.267278 -0.645268 
	-0.0100307 -0.46164 -0.0192677 
	-0.0111021 -0.737194 0.0101732 
	-0.00632878 -0.49996 -0.0109609 
	-0.00970374 -0.765983 0.00814239 
	0.010953 -0.49988 0.0189725 
	0.0416075 -0.705882 0.0106481 
}

frame 23 {
	-20.7784 24.708 -0.628628 0.627408 -0.324341 
	0.709947 
	0.0407074 0.0526184 0.584809 
	-0.0155626 -0.360319 0.0402468 
	-0.595801 0.331376 -0.319624 
	-0.704255 -0.709947 
	-0.0406862 -0.0527254 0.585234 
	0.0152613 0.353343 0.040362 
	0.628227 -0.264515 -0.277936 
	-0.000308067 -0.146459 0.000209634 
	-0.000338828 -0.0774462 0.00436183 
	0.000514507 
	-0.0105957 
	-0.00218445 -0.183493 0.0117018 
	0.000744953 -0.0871557 -0.000851486 
	0.706214 
	0.17038 0.268761 0.50759 
	0.0773661 0.0979949 0.716491 
	-0.919908 0.0471398 0.0147938 
	-0.00653959 0.53726 -0.0102636 
	0.715889 0.698214 
	0.0 -0.115235 -0.23428 0.426058 
	0.0723182 -0.794276 0.517257 
	0.273878 -0.267278 -0.645268 
	-0.0100307 -0.46164 -0.0192677 
	-0.011102 -0.737194 0.0101732 
	-0.00632878 -0.49996 -0.0109608 
	-0.00970374 -0.765983 0.00814239 
	0.010953 -0.49988 0.0189725 
	0.0416075 -0.705882 0.0106481 
}

frame 24 {
	-21.0361 24.0156 -0.65766 0.65607 -0.260982 
	0.709947 
	0.0534484 0.0695401 0.581412 
	-0.011718 -0.271306 0.0415293 
	-0.595801 0.331376 -0.319624 
	-0.704255 -0.709947 
	-0.053432 -0.0696717 0.581969 
	0.011422 0.264453 0.0416117 
	0.628227 -0.264515 -0.277936 
	-0.000308067 -0.146459 0.000209634 
	-0.000338828 -0.0774463 0.00436183 
	0.000514507 
	-0.0105957 
	-0.00218445 -0.183493 0.0117018 
	0.000744954 -0.0871557 -0.000851486 
	0.706214 
	0.17038 0.268761 0.50759 
	0.0773661 0.097995 0.716491 
	-0.919908 0.0471398 0.0147938 
	-0.00653959 0.53726 -0.0102636 
	0.715889 0.698214 
	0.0 -0.115235 -0.23428 0.426058 
	0.0723182 -0.794276 0.517257 
	0.273878 -0.267278 -0.645268 
	-0.0100307 -0.46164 -0.0192677 
	-0.0111021 -0.737194 0.0101732 
	-0.00632876 -0.49996 -0.0109609 
	-0.00970373 -0.765983 0.0081424 
	0.010953 -0.49988 0.0189725 
	0.0416075 -0.705882 0.0106482 
}

frame 25 {
	-21.2937 23.3232 -0.682137 0.68016 -0.18884 
	0.709947 
	0.0672298 0.0881007 0.577428 
	-0.00799358 -0.185075 0.042404 
	-0.595801 0.331376 -0.319624 
	-0.704255 -0.709947 
	-0.0672252 -0.0882541 0.578128 
	0.00770572 0.17841 0.0424572 
	0.628226 -0.264515 -0.277936 
	-0.000308069 -0.146459 0.000209633 
	-0.000338828 -0.0774463 0.00436183 
	0.000514507 
	-0.0105957 
	-0.00218445 -0.183493 0.0117018 
	0.000744951 -0.0871557 -0.000851486 
	0.706214 
	0.17038 0.268761 0.50759 
	0.0773661 0.097995 0.716491 
	-0.919908 0.0471398 0.0147938 
	-0.00653959 0.53726 -0.0102636 
	0.715889 0.698214 
	0.0 -0.115235 -0.23428 0.426058 
	0.0723182 -0.794276 0.517257 
	0.273878 -0.267278 -0.645268 
	-0.0100307 -0.46164 -0.0192677 
	-0.0111021 -0.737194 0.0101732 
	-0.00632878 -0.49996 -0.0109609 
	-0.00970374 -0.765983 0.00814239 
	0.010953 -0.49988 0.0189725 
	0.0416075 -0.705882 0.0106482 
}

frame 26 {
	-21.5514 22.6309 -0.699619 0.697252 -0.109201 
	0.709947 
	0.0818027 0.108029 0.572859 
	-0.00465861 -0.107861 0.0428986 
	-0.595801 0.331376 -0.319624 
	-0.704255 -0.709947 
	-0.0818181 -0.1082 0.573708 
	0.00438017 0.101414 0.042928 
	0.628226 -0.264515 -0.277936 
	-0.000308069 -0.146459 0.000209634 
	-0.000338828 -0.0774463 0.00436183 
	0.000514507 
	-0.0105957 
	-0.00218445 -0.183493 0.0117018 
	0.000744953 -0.0871557 -0.000851485 
	0.706214 
	0.17038 0.268761 0.50759 
	0.0773661 0.0979949 0.716491 
	-0.919908 0.0471398 0.0147938 
	-0.00653959 0.53726 -0.0102636 
	0.715889 0.698214 
	0.0 -0.115235 -0.23428 0.426058 
	0.0723182 -0.794276 0.517257 
	0.273878 -0.267277 -0.645268 
	-0.0100307 -0.46164 -0.0192677 
	-0.0111021 -0.737194 0.0101732 
	-0.00632879 -0.49996 -0.0109609 
	-0.00970373 -0.765983 0.00814241 
	0.010953 -0.49988 0.0189725 
	0.0416075 -0.705882 0.0106481 
}

frame 27 {
	-21.809 21.9385 -0.708025 0.705283 -0.0238571 
	0.709947 
	0.0969217 0.129046 0.567717 
	-0.00197675 -0.0457674 0.0431055 
	-0.595801 0.331376 -0.319623 
	-0.704255 -0.709947 
	-0.096967 -0.129229 0.568719 
	0.00170719 0.0395265 0.043117 
	0.628227 -0.264515 -0.277936 
	-0.000308066 -0.146459 0.000209634 
	-0.000338828 -0.0774462 0.00436183 
	0.000514508 
	-0.0105957 
	-0.00218445 -0.183493 0.0117018 
	0.000744955 -0.0871557 -0.000851486 
	0.706214 
	0.17038 0.268761 0.50759 
	0.0773661 0.0979949 0.716491 
	-0.919908 0.0471398 0.0147938 
	-0.00653959 0.53726 -0.0102636 
	0.715889 0.698214 
	0.0 -0.115235 -0.23428 0.426058 
	0.0723182 -0.794276 0.517257 
	0.273878 -0.267278 -0.645268 
	-0.0100307 -0.46164 -0.0192677 
	-0.0111021 -0.737194 0.0101732 
	-0.00632878 -0.49996 -0.0109609 
	-0.00970374 -0.765983 0.00814239 
	0.010953 -0.49988 0.0189725 
	0.0416075 -0.705882 0.0106481 
}

frame 28 {
	-22.3243 17.1924 0.705798 -0.702709 -0.0649661 
	0.709947 
	0.112349 0.150868 0.562034 
	-0.000196547 -0.00455071 0.0431504 
	-0.595801 0.331376 -0.319624 
	-0.704255 -0.709947 
	-0.112434 -0.151055 0.563191 
	-0.00066516 -0.00153989 0.0431508 
	0.628227 -0.264515 -0.277936 
	-0.000308069 -0.146459 0.000209633 
	-0.000338828 -0.0774462 0.00436183 
	0.000514508 
	-0.0105957 
	-0.00218445 -0.183493 0.0117018 
	0.000744953 -0.0871557 -0.000851486 
	0.706214 
	0.17038 0.268761 0.50759 
	0.0773661 0.0979949 0.716491 
	-0.919908 0.0471398 0.0147938 
	-0.00653959 0.53726 -0.0102636 
	0.715889 0.698214 
	-0.00038147 -0.115235 -0.23428 0.426058 
	0.0723182 -0.794276 0.517257 
	0.273878 -0.267278 -0.645268 
	-0.0100307 -0.46164 -0.0192677 
	-0.0111021 -0.737194 0.0101732 
	-0.00632877 -0.49996 -0.0109609 
	-0.00970372 -0.765983 0.00814239 
	0.0109531 -0.49988 0.0189725 
	0.0416075 -0.705882 0.0106481 
}

frame 29 {
	-22.8396 12.4464 0.692039 -0.688645 -0.154739 
	0.709947 
	0.127855 0.173205 0.555861 
	0.000447584 0.010363 0.0431485 
	-0.595801 0.331376 -0.319624 
	-0.704255 -0.709947 
	-0.127991 -0.173389 0.557171 
	-0.000708193 -0.0163967 0.043145 
	0.628227 -0.264515 -0.277936 
	-0.000308067 -0.146459 0.000209634 
	-0.000338828 -0.0774463 0.00436183 
	0.000514507 
	-0.0105957 
	-0.00218445 -0.183493 0.0117018 
	0.000744952 -0.0871557 -0.000851486 
	0.706214 
	0.17038 0.268761 0.50759 
	0.0773661 0.097995 0.716491 
	-0.919908 0.0471398 0.0147938 
	-0.00653959 0.53726 -0.0102636 
	0.715889 0.698214 
	-0.00038147 -0.115235 -0.23428 0.426058 
	0.0723182 -0.794276 0.517257 
	0.273878 -0.267278 -0.645268 
	-0.0100307 -0.46164 -0.0192677 
	-0.0111021 -0.737194 0.0101732 
	-0.00632878 -0.49996 -0.0109609 
	-0.00970374 -0.765983 0.0081424 
	0.010953 -0.49988 0.0189725 
	0.0416075 -0.705882 0.0106481 
}

