MD5Version 10
commandline "x:-90,y:180"

numFrames 15
numJoints 39
frameRate 30
numAnimatedComponents 19

hierarchy {
	"Root"	-1 0 0	// 
	"LHip"	0 0 0	// Root
	"LThigh"	1 56 0	// LHip ( Qx Qy Qz )
	"LCalf"	2 0 0	// LThigh
	"LFoot"	3 0 0	// LCalf
	"RHip"	0 0 0	// Root
	"RThigh"	5 56 3	// RHip ( Qx Qy Qz )
	"RCalf"	6 0 0	// RThigh
	"RFoot"	7 0 0	// RCalf
	"Spine1"	0 0 0	// Root
	"Spine2"	9 24 6	// Spine1 ( Qx Qy )
	"Spine3"	10 0 0	// Spine2
	"Spine4"	11 0 0	// Spine3
	"Neck"	12 0 0	// Spine4
	"Head"	13 24 8	// Neck ( Qx Qy )
	"LShoulder"	12 0 0	// Spine4
	"LUpperArm"	15 56 10	// LShoulder ( Qx Qy Qz )
	"LLowerArm"	16 0 0	// LUpperArm
	"LHand"	17 0 0	// LLowerArm
	"LThumb0"	18 0 0	// LHand
	"LThumb1"	19 0 0	// LThumb0
	"LIndex0"	18 0 0	// LHand
	"LIndex1"	21 0 0	// LIndex0
	"LMiddle0"	18 0 0	// LHand
	"LMiddle1"	23 0 0	// LMiddle0
	"LPinky0"	18 0 0	// LHand
	"LPinky1"	25 0 0	// LPinky0
	"RShoulder"	12 0 0	// Spine4
	"RUpperArm"	27 56 13	// RShoulder ( Qx Qy Qz )
	"RLowerArm"	28 56 16	// RUpperArm ( Qx Qy Qz )
	"RHand"	29 0 0	// RLowerArm
	"RThumb0"	30 0 0	// RHand
	"RThumb1"	31 0 0	// RThumb0
	"RIndex0"	30 0 0	// RHand
	"RIndex1"	33 0 0	// RIndex0
	"RMiddle0"	30 0 0	// RHand
	"RMiddle1"	35 0 0	// RMiddle0
	"RPinky0"	30 0 0	// RHand
	"RPinky1"	37 0 0	// RPinky0
}

bounds {
	( -25.4385 -71.5237 -21.9945 ) ( 28.6729 35.863 46.02 )
	( -25.4485 -71.4434 -22.3086 ) ( 28.6768 35.754 46.3352 )
	( -25.4539 -71.3598 -22.6201 ) ( 28.6794 35.6405 46.6494 )
	( -25.4547 -71.2728 -22.9292 ) ( 28.681 35.5226 46.9628 )
	( -25.4507 -71.1822 -23.2357 ) ( 28.6813 35.4002 47.2751 )
	( -25.4421 -71.0884 -23.5396 ) ( 28.6806 35.2736 47.5865 )
	( -25.4287 -70.9911 -23.8408 ) ( 28.6786 35.1425 47.8967 )
	( -25.4106 -70.8905 -24.1394 ) ( 28.6757 35.0071 48.206 )
	( -25.4309 -71.0052 -23.7979 ) ( 28.679 35.1615 47.8525 )
	( -25.445 -71.1156 -23.453 ) ( 28.6809 35.3102 47.4976 )
	( -25.453 -71.2214 -23.1046 ) ( 28.6813 35.4532 47.1413 )
	( -25.4548 -71.3229 -22.7529 ) ( 28.6802 35.5905 46.7838 )
	( -25.4506 -71.4199 -22.3978 ) ( 28.6776 35.722 46.425 )
	( -25.4402 -71.5124 -22.0395 ) ( 28.6735 35.8476 46.0651 )
	( -25.4239 -71.6004 -21.678 ) ( 28.6679 35.9675 45.704 )
}

baseframe {
	( 0.0358182 28.1561 43.5605 ) ( -0.704416 0.704416 -0.0616285 )
	( 4.15336 -0.0003241 0.0 ) ( -0.00104932 0.000105807 0.709947 )
	( 7.59215 0.0 0.0 ) ( 0.173094 0.129939 0.579815 )
	( 15.5915 0.000286102 0.0 ) ( -0.122639 -0.484727 0.0373694 )
	( 17.2938 0.000309944 0.0 ) ( -0.538672 0.458075 -0.339049 )
	( 4.15335 0.00407075 0.000762939 ) ( -0.704255 -0.709947 0.000372216 )
	( 7.59215 -0.000190735 0.0 ) ( -0.273527 -0.205331 0.558076 )
	( 15.5915 0.000953674 0.00038147 ) ( 0.131788 0.520887 0.0363931 )
	( 17.2938 0.000286102 0.0 ) ( 0.474273 -0.524467 -0.417143 )
	( 4.15336 -0.000745058 0.0 ) ( -0.000900712 -0.0436194 0.000211742 )
	( 9.68327 -0.000200793 0.0 ) ( 0.000726861 0.000372499 0.00437497 )
	( 8.70644 -0.000180304 0.0 ) ( 0.000224425 0.0436194 0.000514018 )
	( 7.82788 -0.00108778 0.00038147 ) ( -0.000462177 0.0436169 -0.0105856 )
	( 7.2688 0.000596046 0.0 ) ( -0.0020671 -0.173636 0.0117231 )
	( 6.23149 0.000778586 0.00038147 ) ( 0.000221223 -0.258819 -0.000825614 )
	( 7.2688 0.000596046 0.0 ) ( -0.000158257 0.000157845 0.706214 )
	( 11.8222 0.000953674 0.0 ) ( -0.0742721 -0.0456044 0.533529 )
	( 13.341 -0.000257492 0.000762939 ) ( 0.144884 0.309817 0.0158095 )
	( 14.6184 0.000762939 0.0 ) ( -0.707083 -0.00578997 -0.00578998 )
	( 4.84209 2.5873 0.000190735 ) ( -0.357836 0.349218 -0.60486 )
	( 2.33052 0.000457764 0.0 ) ( -0.00653958 0.53726 -0.0102636 )
	( 8.25927 2.14646 0.0 ) ( 0.00831325 0.382593 -0.0200688 )
	( 2.77593 0.0 -0.000190735 ) ( 0.0106477 0.707027 0.0106477 )
	( 8.90236 -0.184731 0.000190735 ) ( 0.00584473 0.461712 -0.0112266 )
	( 3.17609 0.000648499 0.0 ) ( 0.00895714 0.70705 0.00895714 )
	( 7.41579 -2.4693 0.000190735 ) ( -0.0101152 0.461638 0.0194322 )
	( 2.77593 0.0 0.0 ) ( -0.0416077 0.705882 0.0106477 )
	( 7.27002 0.110125 0.000762939 ) ( 0.715716 0.698392 -0.00019513 )
	( 11.8222 -0.000953674 0.00038147 ) ( 0.0360375 0.0245753 0.571009 )
	( 13.341 -0.000260353 0.0 ) ( -0.184027 -0.504802 0.0149138 )
	( 14.6184 0.000762939 0.0 ) ( 0.707083 0.00578997 -0.00578998 )
	( 4.09901 2.58669 0.000152588 ) ( 0.273878 -0.267278 -0.645268 )
	( 2.33052 0.00043869 -0.000953674 ) ( 0.00365728 -0.300684 -0.0116045 )
	( 6.97201 2.14584 0.000152588 ) ( -0.0100307 -0.46164 -0.0192677 )
	( 2.77593 -0.000190735 0.000953674 ) ( -0.0111021 -0.737194 0.0101732 )
	( 7.6151 -0.185354 0.000190735 ) ( -0.00632878 -0.49996 -0.0109609 )
	( 3.1761 0.000686646 0.000190735 ) ( -0.00970373 -0.765983 0.0081424 )
	( 6.12853 -2.46992 0.000762939 ) ( 0.010953 -0.49988 0.0189725 )
	( 2.77593 0.000190735 -0.000190735 ) ( 0.0416073 -0.705882 0.0106483 )
}

frame 0 {
	0.177385 0.133104 0.579043 
	-0.277691 -0.208347 0.556865 
	-0.000238616 -0.00545406 
	0.000216716 -0.253547 
	-0.0696551 -0.0427464 0.533705 
	0.0315278 0.021518 0.57108 
	-0.182679 -0.500476 0.0147155 
}

frame 1 {
	0.181661 0.136273 0.578271 
	-0.281828 -0.211373 0.555664 
	-0.000477225 -0.010908 
	0.000212204 -0.248267 
	-0.0650323 -0.0398901 0.533885 
	0.027016 0.018461 0.571149 
	-0.18126 -0.496133 0.0145877 
}

frame 2 {
	0.185921 0.139446 0.5775 
	-0.285937 -0.214409 0.554473 
	-0.00071582 -0.0163616 
	0.000207685 -0.24298 
	-0.0604043 -0.0370354 0.53407 
	0.0225022 0.0154043 0.571218 
	-0.179769 -0.491772 0.0145305 
}

frame 3 {
	0.190166 0.142625 0.57673 
	-0.290017 -0.217456 0.553294 
	-0.000954394 -0.0218147 
	0.000203159 -0.237686 
	-0.0557711 -0.0341824 0.534259 
	0.0179867 0.012348 0.571287 
	-0.178206 -0.487397 0.0145443 
}

frame 4 {
	0.194396 0.145807 0.57596 
	-0.294069 -0.220513 0.552125 
	-0.000119294 -0.0272671 
	0.000198628 -0.232384 
	-0.0511331 -0.0313312 0.534452 
	0.0134698 0.0092922 0.571355 
	-0.176573 -0.483006 0.0146291 
}

frame 5 {
	0.198609 0.148995 0.575191 
	-0.298091 -0.22358 0.550967 
	-0.000143145 -0.0327188 
	0.000194091 -0.227076 
	-0.0464905 -0.0284818 0.53465 
	0.00895172 0.00623689 0.571422 
	-0.174867 -0.478603 0.014785 
}

frame 6 {
	0.202806 0.152186 0.574423 
	-0.302084 -0.226657 0.54982 
	-0.000166992 -0.0381694 
	0.000189548 -0.221761 
	-0.0418437 -0.0256344 0.534852 
	0.00443265 0.00318217 0.571489 
	-0.17309 -0.474188 0.0150122 
}

frame 7 {
	0.206987 0.155382 0.573656 
	-0.306047 -0.229744 0.548685 
	-0.000190833 -0.043619 
	0.000184999 -0.21644 
	-0.0371928 -0.022789 0.535058 
	-0.000871348 0.000128104 0.571555 
	-0.171242 -0.469762 0.0153108 
}

frame 8 {
	0.202208 0.15173 0.574533 
	-0.301515 -0.226217 0.549983 
	-0.000163585 -0.0373908 
	0.000190197 -0.222521 
	-0.0425077 -0.0260411 0.534823 
	0.00507829 0.00361852 0.571479 
	-0.173349 -0.474819 0.0149754 
}

frame 9 {
	0.197407 0.148084 0.575411 
	-0.296945 -0.222703 0.551297 
	-0.000136331 -0.0311612 
	0.000195387 -0.228594 
	-0.0478174 -0.0292957 0.534593 
	0.0102427 0.00710977 0.571403 
	-0.175362 -0.479862 0.0147332 
}

frame 10 {
	0.192585 0.144443 0.57629 
	-0.292336 -0.219202 0.552624 
	-0.00109071 -0.0249304 
	0.000200571 -0.234657 
	-0.0531214 -0.0325529 0.534368 
	0.0154058 0.0106018 0.571326 
	-0.177282 -0.48489 0.014584 
}

frame 11 {
	0.187742 0.140808 0.57717 
	-0.287689 -0.215714 0.553966 
	-0.000818069 -0.0186987 
	0.000205746 -0.240712 
	-0.0584192 -0.0358124 0.53415 
	0.0205672 0.0140944 0.571248 
	-0.179108 -0.489899 0.0145278 
}

frame 12 {
	0.18288 0.137179 0.578051 
	-0.283005 -0.212239 0.555323 
	-0.000545395 -0.0124662 
	0.000210913 -0.246757 
	-0.0637106 -0.0390743 0.533937 
	0.0257265 0.0175876 0.571169 
	-0.180841 -0.494889 0.0145641 
}

frame 13 {
	0.177997 0.133556 0.578932 
	-0.278284 -0.208778 0.556693 
	-0.000272703 -0.00623322 
	0.000216072 -0.252793 
	-0.068995 -0.0423383 0.53373 
	0.0308834 0.0210813 0.57109 
	-0.182481 -0.499857 0.0146929 
}

frame 14 {
	0.173094 0.129939 0.579815 
	-0.273527 -0.205331 0.558076 
	0.000726861 0.000372499 
	0.000221223 -0.258819 
	-0.0742721 -0.0456044 0.533529 
	0.0360375 0.0245753 0.571009 
	-0.184027 -0.504802 0.0149138 
}

