MD5Version 10
commandline "x:-90,y:180"

numFrames 20
numJoints 39
frameRate 30
numAnimatedComponents 76

hierarchy {
	"Root"	-1 62 0	//  ( Ty Tz Qx Qy Qz )
	"LHip"	0 32 5	// Root ( Qz )
	"LThigh"	1 56 6	// LHip ( Qx Qy Qz )
	"LCalf"	2 0 0	// LThigh
	"LFoot"	3 56 9	// LCalf ( Qx Qy Qz )
	"RHip"	0 24 12	// Root ( Qx Qy )
	"RThigh"	5 56 14	// RHip ( Qx Qy Qz )
	"RCalf"	6 56 17	// RThigh ( Qx Qy Qz )
	"RFoot"	7 56 20	// RCalf ( Qx Qy Qz )
	"Spine1"	0 56 23	// Root ( Qx Qy Qz )
	"Spine2"	9 56 26	// Spine1 ( Qx Qy Qz )
	"Spine3"	10 56 29	// Spine2 ( Qx Qy Qz )
	"Spine4"	11 56 32	// Spine3 ( Qx Qy Qz )
	"Neck"	12 57 35	// Spine4 ( Tx Qx Qy Qz )
	"Head"	13 57 39	// Neck ( Tx Qx Qy Qz )
	"LShoulder"	12 33 43	// Spine4 ( Tx Qz )
	"LUpperArm"	15 58 45	// LShoulder ( Ty Qx Qy Qz )
	"LLowerArm"	16 57 49	// LUpperArm ( Tx Qx Qy Qz )
	"LHand"	17 56 53	// LLowerArm ( Qx Qy Qz )
	"LThumb0"	18 0 0	// LHand
	"LThumb1"	19 0 0	// LThumb0
	"LIndex0"	18 0 0	// LHand
	"LIndex1"	21 0 0	// LIndex0
	"LMiddle0"	18 0 0	// LHand
	"LMiddle1"	23 56 56	// LMiddle0 ( Qx Qy Qz )
	"LPinky0"	18 0 0	// LHand
	"LPinky1"	25 56 59	// LPinky0 ( Qx Qy Qz )
	"RShoulder"	12 25 62	// Spine4 ( Tx Qx Qy )
	"RUpperArm"	27 56 65	// RShoulder ( Qx Qy Qz )
	"RLowerArm"	28 34 68	// RUpperArm ( Ty Qz )
	"RHand"	29 56 70	// RLowerArm ( Qx Qy Qz )
	"RThumb0"	30 0 0	// RHand
	"RThumb1"	31 56 73	// RThumb0 ( Qx Qy Qz )
	"RIndex0"	30 0 0	// RHand
	"RIndex1"	33 0 0	// RIndex0
	"RMiddle0"	30 0 0	// RHand
	"RMiddle1"	35 0 0	// RMiddle0
	"RPinky0"	30 0 0	// RHand
	"RPinky1"	37 0 0	// RPinky0
}

bounds {
	( -27.5435 -15.7225 -35.0975 ) ( 26.2332 29.6626 82.3633 )
	( -29.0668 -15.8084 -36.7597 ) ( 24.1287 34.5148 81.5139 )
	( -29.9339 -15.8549 -37.2336 ) ( 21.8543 39.1716 80.4273 )
	( -30.3093 -15.8424 -36.2605 ) ( 22.5494 43.7044 79.322 )
	( -30.1864 -15.752 -34.1898 ) ( 23.1889 48.2342 78.1453 )
	( -30.0003 -15.7919 -35.0034 ) ( 23.3463 49.2083 77.8738 )
	( -29.674 -15.8218 -35.665 ) ( 23.5393 50.2544 77.6374 )
	( -29.3573 -15.8424 -36.2605 ) ( 23.7607 51.1497 77.2662 )
	( -28.9262 -15.8542 -36.7525 ) ( 23.9138 52.1316 76.8782 )
	( -28.3294 -15.8582 -37.078 ) ( 24.3161 52.9006 76.3085 )
	( -29.2988 -15.8548 -37.2336 ) ( 23.7755 50.4809 77.3625 )
	( -29.892 -15.845 -37.2171 ) ( 23.4409 47.8549 78.255 )
	( -30.3105 -15.8293 -37.0275 ) ( 23.0268 45.1756 79.0803 )
	( -30.383 -15.8084 -36.7597 ) ( 22.6253 42.5036 79.9757 )
	( -30.2894 -15.7832 -36.376 ) ( 22.1559 39.6569 80.7028 )
	( -29.9025 -15.7543 -35.8212 ) ( 21.683 36.8374 81.3553 )
	( -29.2729 -15.7225 -35.0975 ) ( 22.9467 33.8706 81.9903 )
	( -28.3002 -15.6884 -34.3394 ) ( 24.8652 30.9737 82.5395 )
	( -27.0094 -16.4038 -33.4656 ) ( 26.6462 27.8626 82.8931 )
	( -25.4292 -18.0495 -32.5945 ) ( 28.6628 24.8657 83.2943 )
}

baseframe {
	( 0.0358182 20.0283 28.855 ) ( -0.5 0.5 -0.5 )
	( 4.15336 -0.000320375 0.0 ) ( -0.000159272 0.000160559 0.709947 )
	( 7.59215 0.0 0.000190735 ) ( -0.000725172 0.000535302 0.593892 )
	( 15.5915 0.0 0.000190735 ) ( -0.000239344 0.000103367 0.0431509 )
	( 17.2938 0.00038147 0.000190735 ) ( -0.450944 0.544655 -0.44165 )
	( 4.15336 0.00407075 0.000762939 ) ( -0.704255 -0.709947 0.000373139 )
	( 7.59215 -0.00038147 0.000190735 ) ( -0.000725172 0.000535302 0.593892 )
	( 15.5915 0.00038147 0.0 ) ( -0.000239345 0.000103367 0.0431508 )
	( 17.2938 0.000190735 0.0 ) ( 0.450945 -0.544655 -0.441651 )
	( 4.15336 -0.000372529 0.0 ) ( 0.000238419 -0.000505338 0.000211954 )
	( 9.68327 -0.000200607 0.0 ) ( 0.000129653 0.000498623 0.00437497 )
	( 8.70644 -0.000181794 0.0 ) ( 0.000135288 0.000830653 0.000514507 )
	( 7.82788 -0.00107288 0.0 ) ( 0.000888717 -0.00101954 -0.0105957 )
	( 7.2688 0.000596046 0.0 ) ( 0.000536528 -0.000892907 0.011904 )
	( 6.2315 0.00077486 0.0 ) ( 0.000191239 0.000565172 -0.000854739 )
	( 7.2688 0.000596046 0.0 ) ( -0.00015764 0.000157242 0.706214 )
	( 11.8222 -0.000762939 0.0 ) ( 0.000961743 0.000495636 0.535422 )
	( 13.341 -0.000259399 0.000190735 ) ( -0.000718649 0.000123386 0.0171679 )
	( 14.6184 0.000762939 0.000190735 ) ( -0.707083 -0.00578996 -0.00578996 )
	( 4.84209 2.5873 0.0 ) ( -0.357836 0.349218 -0.60486 )
	( 2.33052 0.000457764 0.000143051 ) ( -0.00653959 0.53726 -0.0102636 )
	( 8.25926 2.14646 0.0 ) ( 0.00831325 0.382593 -0.0200688 )
	( 2.77593 0.0 0.000953674 ) ( 0.0106477 0.707027 0.0106477 )
	( 8.90235 -0.184731 0.0 ) ( 0.00584473 0.461712 -0.0112266 )
	( 3.1761 0.000667572 0.0 ) ( 0.00895715 0.70705 0.00895715 )
	( 7.41579 -2.4693 0.0 ) ( -0.0101152 0.461638 0.0194322 )
	( 2.77593 0.0 0.000190735 ) ( -0.0416077 0.705882 0.0106477 )
	( 7.27002 0.110125 0.000762939 ) ( 0.715716 0.698391 -0.000113782 )
	( 11.8222 0.0 0.0 ) ( 0.000152085 -0.00110672 0.571753 )
	( 13.341 -0.000263214 0.0 ) ( -0.000718647 0.000123652 0.0171679 )
	( 14.6184 0.000762939 0.000190735 ) ( 0.707083 0.00578997 -0.00578997 )
	( 4.09901 2.58669 0.000152588 ) ( 0.273878 -0.267278 -0.645268 )
	( 2.33052 0.00043869 0.0 ) ( 0.00365725 -0.300684 -0.0116045 )
	( 6.97201 2.14584 0.000152588 ) ( -0.0100307 -0.46164 -0.0192677 )
	( 2.77593 0.000190735 0.0 ) ( -0.0111021 -0.737194 0.0101732 )
	( 7.6151 -0.185356 0.000152588 ) ( -0.00632878 -0.49996 -0.0109609 )
	( 3.17609 0.000705719 0.0 ) ( -0.00970373 -0.765983 0.0081424 )
	( 6.12853 -2.46992 0.000762939 ) ( 0.010953 -0.49988 0.0189725 )
	( 2.77593 0.0 0.0 ) ( 0.0416075 -0.705882 0.0106482 )
}

frame 0 {
	22.695 28.0928 -0.5 0.5 -0.5 
	0.709947 
	0.0353625 0.0257312 0.591505 
	-0.474272 0.524467 -0.417143 
	-0.704255 -0.709947 
	0.0353625 0.0257312 0.591505 
	0.0226553 0.0756365 0.0364926 
	0.450945 -0.544655 -0.441651 
	0.00875111 -0.00869775 0.000897937 
	0.00867375 -0.00863173 0.00581513 
	0.00859284 0.000136143 0.00202527 
	0.00869874 -0.00865012 -0.00840207 
	7.26881 0.016839 0.000689287 0.0163138 
	6.23151 0.016849 0.000503183 0.00363413 
	7.26881 0.706214 
	0.0 -0.0139186 0.0211466 0.541791 
	13.341 -0.0804841 0.0262537 0.0488317 
	-0.707083 -0.00578996 -0.00578997 
	0.00895715 0.70705 0.00895714 
	-0.0416076 0.705882 0.0106477 
	7.27002 0.715716 0.698391 
	-0.0289714 0.0559798 0.546362 
	-0.000255585 0.0171679 
	0.707083 0.00578996 -0.00578996 
	0.00365727 -0.300684 -0.0116045 
}

frame 1 {
	25.3616 27.3306 -0.5 0.5 -0.5 
	0.709947 
	0.0704663 0.0516273 0.588886 
	-0.496698 0.50328 -0.391841 
	-0.704255 -0.709947 
	0.0704664 0.0516272 0.588886 
	0.0437128 0.151106 0.0327584 
	0.450945 -0.544655 -0.441651 
	0.0174861 -0.0174062 0.00143133 
	0.0173188 -0.0172871 0.00710423 
	0.0171854 0.000246313 0.0035383 
	0.0173556 -0.0173371 -0.00635832 
	7.2688 0.033679 0.00122978 0.0207486 
	6.2315 0.0336974 0.000854945 0.00813837 
	7.2688 0.706214 
	0.0 -0.0274911 0.0424891 0.547375 
	13.341 -0.158482 0.0573877 0.0760104 
	-0.707083 -0.00578997 -0.00578998 
	0.00895716 0.70705 0.00895714 
	-0.0416077 0.705882 0.0106477 
	7.27002 0.715716 0.698391 
	-0.0609002 0.109883 0.515627 
	-0.000259399 0.0171679 
	0.707083 0.00578997 -0.00578997 
	0.00365727 -0.300684 -0.0116045 
}

frame 2 {
	28.0282 26.5683 -0.5 0.5 -0.5 
	0.709947 
	0.105198 0.0776522 0.586053 
	-0.518178 0.481136 -0.365793 
	0.704255 0.709947 
	0.105198 0.0776521 0.586053 
	0.062816 0.225857 0.0320451 
	0.450945 -0.544655 -0.441651 
	0.0262025 -0.0261226 0.00181185 
	0.0259324 -0.0259635 0.00824167 
	0.0257771 0.00033048 0.00505325 
	0.0259677 -0.0260581 -0.0044654 
	7.26881 0.050514 0.00162081 0.0252045 
	6.23149 0.0505394 0.00105492 0.012654 
	7.26881 0.706214 
	0.0 -0.0407088 0.0639978 0.552169 
	13.341 -0.233174 0.0927164 0.0980799 
	-0.707083 -0.00578997 -0.00578997 
	0.00895715 0.70705 0.00895715 
	-0.0416078 0.705882 0.0106477 
	7.27002 0.715716 0.698392 
	-0.0955573 0.161165 0.479766 
	-0.000259399 0.0171679 
	0.707083 0.00578996 -0.00578998 
	0.00365714 -0.300684 -0.0116041 
}

frame 3 {
	30.6949 25.8061 -0.5 0.5 -0.5 
	0.709947 
	0.139444 0.103769 0.583024 
	-0.538672 0.458075 -0.339049 
	-0.704255 -0.709947 
	0.139444 0.103769 0.583024 
	0.0796337 0.299337 0.0344094 
	0.450945 -0.544655 -0.441651 
	0.0348976 -0.0348443 0.00203926 
	0.0345121 -0.0346581 0.00922689 
	0.0343671 0.000388618 0.00656979 
	0.0345326 -0.0348104 -0.00272423 
	7.26881 0.0673383 0.00186179 0.0296776 
	6.23149 0.067369 0.00110281 0.0171772 
	7.26881 0.706214 
	-0.000762939 -0.0535638 0.0856429 0.556169 
	13.341 -0.303828 0.131479 0.114518 
	-0.707083 -0.00578996 -0.00578997 
	0.00895714 0.70705 0.00895714 
	-0.0416077 0.705882 0.0106476 
	7.27002 0.715716 0.698392 
	-0.132664 0.209309 0.439053 
	-0.000259399 0.0171679 
	0.707083 0.00578997 -0.00578997 
	0.00365717 -0.300684 -0.0116043 
}

frame 4 {
	33.3615 25.0439 -0.5 0.5 -0.5 
	0.709947 
	0.173095 0.12994 0.579815 
	-0.55814 0.434143 -0.31166 
	-0.704255 -0.709947 
	0.173095 0.129939 0.579815 
	0.0938636 0.370994 0.0398661 
	0.450945 -0.544655 -0.441651 
	0.0435689 -0.0435686 0.0021134 
	0.0430552 -0.0433683 0.0100594 
	0.0429548 0.000420716 0.00808757 
	0.0430473 -0.0435912 -0.00113568 
	7.26881 0.0841461 0.00195225 0.0341641 
	6.2315 0.0841806 0.000998396 0.0217039 
	7.26881 0.706214 
	0.0 -0.0660493 0.107394 0.559371 
	13.341 -0.369818 0.172854 0.124915 
	-0.707083 -0.00578996 -0.00578995 
	0.00895713 0.70705 0.00895714 
	-0.0416077 0.705882 0.0106477 
	7.27002 0.715716 0.698392 
	-0.171896 0.253827 0.393816 
	-0.000259399 0.0171679 
	0.707083 0.00578995 -0.00578996 
	0.00365719 -0.300684 -0.0116043 
}

frame 5 {
	32.4726 25.2979 -0.5 0.5 -0.5 
	0.709947 
	0.161951 0.121212 0.580904 
	-0.551767 0.442214 -0.320858 
	-0.704255 -0.709947 
	0.161951 0.121212 0.580904 
	0.0894252 0.347344 0.0377044 
	0.450945 -0.544655 -0.441651 
	0.052273 -0.0522334 0.00279988 
	0.0432182 -0.0520116 0.00894487 
	0.0433121 -0.00810107 0.00625351 
	0.0402148 -0.0406612 -0.00164818 
	7.2688 0.100931 0.00189178 0.03866 
	6.2315 0.100947 0.00149701 0.0261484 
	7.2688 0.706214 
	0.0 -0.0697754 0.171036 0.566899 
	13.341 -0.348374 0.158825 0.122141 
	-0.707083 -0.00578997 -0.00578995 
	0.00895714 0.70705 0.00895715 
	-0.0416077 0.705882 0.0106477 
	7.27002 0.715716 0.698391 
	-0.193344 0.282479 0.364744 
	-0.00025177 0.0171679 
	0.707083 0.00578998 -0.00578996 
	0.00365726 -0.300684 -0.0116045 
}

frame 6 {
	31.5837 25.552 -0.5 0.5 -0.5 
	0.709947 
	0.150733 0.112488 0.581974 
	-0.545277 0.450192 -0.329988 
	-0.704255 -0.709947 
	0.150733 0.112488 0.581973 
	0.0846785 0.323452 0.0358851 
	0.450945 -0.544655 -0.44165 
	0.0609348 -0.0609089 0.0033314 
	0.0433901 -0.0606505 0.00782604 
	0.043691 -0.0166209 0.00441208 
	0.0373765 -0.0377343 -0.00217772 
	7.26881 0.117689 0.0016801 0.0431614 
	6.23149 0.11769 0.00184598 0.0306139 
	7.26881 0.706214 
	0.0 -0.0700929 0.233452 0.568462 
	13.341 -0.326371 0.145022 0.118672 
	-0.707083 -0.00578999 -0.00579002 
	0.00895714 0.70705 0.00895714 
	-0.0416079 0.705882 0.0106477 
	7.27002 -0.715716 -0.698391 
	-0.215325 0.309586 0.333983 
	-0.000259399 0.0171679 
	0.707083 0.00578997 -0.00578998 
	0.00365731 -0.300684 -0.0116047 
}

frame 7 {
	30.6949 25.8061 -0.5 0.5 -0.5 
	0.709947 
	0.139444 0.103769 0.583024 
	-0.538672 0.458075 -0.339049 
	0.704255 0.709947 
	0.139444 0.103769 0.583024 
	0.0796337 0.299337 0.0344094 
	0.450945 -0.544655 -0.441651 
	0.0695518 -0.0695922 0.00370757 
	0.043571 -0.0692843 0.0067031 
	0.0440917 -0.025138 0.00256362 
	0.0345326 -0.0348104 -0.00272422 
	7.26881 0.134412 0.001317 0.0476643 
	6.2315 0.134404 0.00204466 0.0350965 
	7.26881 0.706214 
	0.0 -0.0670543 0.294018 0.564175 
	13.341 -0.303828 0.131479 0.114518 
	-0.707083 -0.00578995 -0.00578995 
	0.00895714 0.70705 0.00895713 
	-0.0416077 0.705882 0.0106476 
	7.27002 0.715716 0.698392 
	-0.237745 0.335045 0.301634 
	-0.000259399 0.0171679 
	0.707083 0.00578996 -0.00578996 
	0.00365725 -0.300684 -0.0116045 
}

frame 8 {
	29.806 26.0602 -0.5 0.5 -0.5 
	0.709947 
	0.128089 0.0950555 0.584055 
	-0.531953 0.465861 -0.348038 
	-0.704255 -0.709947 
	0.12809 0.0950554 0.584055 
	0.074301 0.275019 0.0332776 
	0.450945 -0.544655 -0.441651 
	0.0781214 -0.0782807 0.00392805 
	0.0437607 -0.0779126 0.00557622 
	0.0445139 -0.0336519 0.000708511 
	0.0316831 -0.0318896 -0.0032877 
	7.2688 0.151095 0.000802312 0.0521649 
	6.23149 0.151083 0.00209259 0.0395923 
	7.2688 0.706214 
	0.0 -0.0607684 0.352123 0.554221 
	13.341 -0.280766 0.118226 0.109692 
	-0.707083 -0.00578996 -0.00578996 
	0.00895714 0.70705 0.00895713 
	-0.0416077 0.705882 0.0106476 
	7.27002 0.715716 0.698391 
	-0.260507 0.35876 0.267806 
	-0.00025177 0.0171679 
	0.707083 0.00578998 -0.00578998 
	0.00365726 -0.300684 -0.0116045 
}

frame 9 {
	28.9171 26.3143 -0.5 0.5 -0.5 
	0.709947 
	0.116673 0.0863495 0.585064 
	-0.525121 0.473548 -0.356953 
	-0.704255 -0.709947 
	0.116673 0.0863494 0.585064 
	0.0686914 0.250519 0.0324897 
	0.450945 -0.544655 -0.441651 
	0.086641 -0.0869714 0.00399256 
	0.0439593 -0.0865345 0.00444561 
	0.0449576 -0.0421617 -0.0011529 
	0.0288281 -0.0289722 -0.0038681 
	7.26881 0.167732 0.000136034 0.0566592 
	6.23149 0.16772 0.00198934 0.0440974 
	7.26881 0.706214 
	0.0 -0.0513986 0.40718 0.538847 
	13.341 -0.257207 0.105295 0.104208 
	-0.707083 -0.00578999 -0.00578997 
	0.00895716 0.70705 0.00895715 
	-0.0416077 0.705882 0.0106477 
	7.27003 0.715716 0.698391 
	-0.283508 0.380643 0.232611 
	-0.000255585 0.0171679 
	0.707083 0.00578998 -0.00578998 
	0.00365729 -0.300684 -0.0116045 
}

frame 10 {
	28.0282 26.5683 -0.5 0.5 -0.5 
	0.709947 
	0.105198 0.0776522 0.586053 
	-0.518178 0.481136 -0.365793 
	-0.704255 -0.709947 
	0.105198 0.0776521 0.586053 
	0.062816 0.225857 0.0320451 
	0.450945 -0.544655 -0.441651 
	0.0781413 -0.0782612 0.00430969 
	0.0396252 -0.0778987 0.00479079 
	0.0404722 -0.0379541 -0.00081528 
	0.0259677 -0.0260581 -0.0044654 
	7.2688 0.151095 0.000802297 0.0521649 
	6.23149 0.151077 0.002472 0.0395703 
	7.2688 0.706214 
	-0.000762939 -0.0527282 0.370202 0.550496 
	13.341 -0.233173 0.0927164 0.09808 
	-0.707083 -0.00578995 -0.00578996 
	0.00895716 0.70705 0.00895715 
	-0.0416077 0.705882 0.0106477 
	7.27001 0.715716 0.698391 
	-0.250369 0.354255 0.27899 
	-0.000255585 0.0171679 
	0.707083 0.00578998 -0.00578996 
	0.00365718 -0.300684 -0.0116043 
}

frame 11 {
	27.1393 26.8224 -0.5 0.5 -0.5 
	0.709947 
	0.0936689 0.0689652 0.58702 
	-0.511126 0.488621 -0.374555 
	-0.704255 -0.709947 
	0.093669 0.0689651 0.58702 
	0.0566864 0.201054 0.0319429 
	0.450945 -0.544655 -0.441651 
	0.0695982 -0.0695465 0.0044718 
	0.0352745 -0.0692559 0.00505767 
	0.0359836 -0.0337436 -0.000515587 
	0.0231021 -0.0231474 -0.00507955 
	7.2688 0.134412 0.00131698 0.0476643 
	6.23149 0.134389 0.00280256 0.0350398 
	7.2688 0.706214 
	0.0 -0.0527087 0.331888 0.55965 
	13.341 -0.208691 0.0805196 0.0913255 
	-0.707083 -0.00578999 -0.00578998 
	0.00895715 0.70705 0.00895715 
	-0.0416077 0.705882 0.0106477 
	7.27001 0.715716 0.698391 
	-0.217747 0.324676 0.323183 
	-0.000263214 0.0171679 
	0.707083 0.00578998 -0.00578996 
	0.00365724 -0.300684 -0.0116045 
}

frame 12 {
	26.2505 27.0765 -0.5 0.5 -0.5 
	0.709947 
	0.0820904 0.0602897 0.587964 
	-0.503965 0.496003 -0.383239 
	-0.704255 -0.709947 
	0.0820904 0.0602897 0.587964 
	0.0503145 0.17613 0.0321813 
	0.450945 -0.544655 -0.441651 
	0.0610141 -0.0608301 0.00447901 
	0.0309083 -0.0606071 0.00524622 
	0.0314921 -0.0295308 -0.000253845 
	0.0202314 -0.0202404 -0.00571054 
	7.2688 0.117689 0.00168008 0.0431614 
	6.23148 0.117663 0.0029811 0.0305099 
	7.2688 0.706214 
	0.0 -0.0512867 0.29242 0.566221 
	13.341 -0.183785 0.068734 0.0839626 
	-0.707083 -0.00578998 -0.00578996 
	0.00895714 0.70705 0.00895714 
	-0.0416077 0.705882 0.0106477 
	7.27002 0.715716 0.698391 
	-0.185872 0.292096 0.364937 
	-0.000255585 0.0171679 
	0.707083 0.00578997 -0.00578997 
	0.00365727 -0.300684 -0.0116045 
}

frame 13 {
	25.3616 27.3306 -0.5 0.5 -0.5 
	0.709947 
	0.0704663 0.0516273 0.588886 
	-0.496698 0.50328 -0.391841 
	-0.704255 -0.709947 
	0.0704663 0.0516272 0.588886 
	0.0437128 0.151106 0.0327584 
	0.450945 -0.544655 -0.441651 
	0.0523918 -0.0521149 0.00433147 
	0.0265276 -0.0519536 0.00535645 
	0.0269982 -0.0253158 -0.000300668 
	0.0173556 -0.017337 -0.00635832 
	7.26881 0.100931 0.0018918 0.03866 
	6.23148 0.100904 0.00300781 0.0259844 
	7.26881 0.706214 
	0.0 -0.0484202 0.251984 0.570135 
	13.341 -0.158482 0.0573877 0.0760104 
	-0.707083 -0.00578996 -0.00578998 
	0.00895714 0.70705 0.00895715 
	-0.0416078 0.705882 0.0106476 
	7.27002 0.715716 0.698391 
	-0.154964 0.256725 0.404018 
	-0.000255585 0.0171679 
	0.707083 0.00578997 -0.00578997 
	0.00365726 -0.300684 -0.0116045 
}

frame 14 {
	24.4727 27.5846 -0.5 0.5 -0.5 
	0.709947 
	0.0588008 0.0429791 0.589783 
	-0.489326 0.510451 -0.40036 
	-0.704255 -0.709947 
	0.0588008 0.0429791 0.589783 
	0.0368936 0.126002 0.0336714 
	0.450945 -0.544655 -0.441651 
	0.0437338 -0.0434035 0.00402941 
	0.0221335 -0.0432966 0.00538837 
	0.022502 -0.021099 0.000155719 
	0.0144748 -0.0144375 -0.00702286 
	7.26881 0.0841461 0.00195226 0.0341641 
	6.23149 0.0841191 0.0028829 0.0214674 
	7.26881 0.706214 
	0.0 -0.0440785 0.210772 0.571331 
	13.341 -0.132812 0.046508 0.0674897 
	-0.707083 -0.00578996 -0.00578997 
	0.00895714 0.70705 0.00895713 
	-0.0416077 0.705882 0.0106477 
	7.27002 0.715716 0.698391 
	-0.125227 0.218796 0.440208 
	-0.000255585 0.0171679 
	0.707083 0.00578999 -0.00578997 
	0.00365726 -0.300684 -0.0116045 
}

frame 15 {
	23.5838 27.8387 -0.5 0.5 -0.5 
	0.709947 
	0.0470981 0.0343467 0.590657 
	-0.48185 0.517514 -0.408795 
	-0.704255 -0.709947 
	0.0470981 0.0343466 0.590656 
	0.0298701 0.100839 0.0349174 
	0.450945 -0.544655 -0.441651 
	0.0350427 -0.0346987 0.00357308 
	0.0177271 -0.0346373 0.00534201 
	0.018004 -0.0168808 0.000303507 
	0.0115891 -0.0115418 -0.00770412 
	7.2688 0.0673383 0.0018618 0.0296776 
	6.2315 0.0673134 0.00260677 0.0169626 
	7.2688 0.706214 
	0.000762939 -0.0382428 0.16898 0.569761 
	13.341 -0.106802 0.0361216 0.0584224 
	-0.707083 -0.00578997 -0.00578996 
	0.00895716 0.70705 0.00895714 
	-0.0416077 0.705882 0.0106477 
	7.27002 0.715716 0.698391 
	-0.096847 0.178558 0.473311 
	-0.000259399 0.0171679 
	0.707083 0.00578998 -0.00578998 
	0.00365726 -0.300684 -0.0116045 
}

frame 16 {
	22.695 28.0928 -0.5 0.5 -0.5 
	0.709947 
	0.0353625 0.0257312 0.591505 
	-0.474272 0.524467 -0.417143 
	-0.704255 -0.709947 
	0.0353625 0.0257312 0.591505 
	0.0226553 0.0756365 0.0364926 
	0.450945 -0.544655 -0.441651 
	0.0263212 -0.0260032 0.00296279 
	0.0133095 -0.0259768 0.00521743 
	0.0135044 -0.0126614 0.000413286 
	0.00869874 -0.00865011 -0.00840207 
	7.2688 0.050514 0.00162081 0.0252045 
	6.23148 0.0504928 0.00217982 0.0124742 
	7.2688 0.706214 
	-0.000762939 -0.0309059 0.126806 0.565396 
	13.341 -0.0804841 0.0262537 0.0488317 
	-0.707083 -0.00578996 -0.00578996 
	0.00895716 0.70705 0.00895715 
	-0.0416077 0.705882 0.0106477 
	7.27002 0.715716 0.698391 
	-0.0699945 0.136275 0.503155 
	-0.000259399 0.0171679 
	0.707083 0.00578999 -0.00578998 
	0.00365727 -0.300684 -0.0116045 
}

frame 17 {
	21.8061 28.3469 -0.5 0.5 -0.5 
	0.709947 
	0.0235981 0.0171341 0.592327 
	-0.466595 0.531309 -0.425402 
	-0.704255 -0.709947 
	0.0235981 0.0171341 0.592327 
	0.0152628 0.0504159 0.0383931 
	0.450945 -0.544655 -0.441651 
	0.0175718 -0.0173198 0.00219889 
	0.00888167 -0.0173163 0.00501467 
	0.0090037 -0.00844129 0.000485048 
	0.00580369 -0.00576251 -0.00911667 
	7.26881 0.033679 0.00122979 0.0207486 
	6.23149 0.0336632 0.00160261 0.0080059 
	7.26881 0.706214 
	0.0 -0.0220731 0.0844509 0.558217 
	13.341 -0.0538893 0.0169288 0.0387419 
	-0.707083 -0.00578998 -0.00578998 
	0.00895714 0.70705 0.00895716 
	-0.0416077 0.705882 0.0106476 
	7.27002 0.715716 0.698391 
	-0.0448196 0.0922254 0.529589 
	-0.000259399 0.0171679 
	0.707083 0.00578996 -0.00578996 
	0.00365727 -0.300684 -0.0116045 
}

frame 18 {
	20.9172 28.6009 -0.5 0.5 -0.5 
	0.709947 
	0.0118091 0.00855662 0.593123 
	-0.458818 0.538039 -0.433572 
	-0.704255 -0.709947 
	0.0118092 0.00855662 0.593123 
	0.00770638 0.025197 0.0406142 
	0.450945 -0.544655 -0.441651 
	0.00879727 -0.00865114 0.0012818 
	0.00444483 -0.00865696 0.00473382 
	0.00450212 -0.00422071 0.00051879 
	0.00290407 -0.00287911 -0.00984789 
	7.26881 0.016839 0.000689289 0.0163138 
	6.23149 0.0168303 0.000875764 0.00356163 
	7.26881 0.706214 
	-0.000762939 -0.0117614 0.0421154 0.548221 
	13.341 -0.0270501 0.00817017 0.0281784 
	-0.707083 -0.00578996 -0.00578996 
	0.00895715 0.70705 0.00895714 
	-0.0416077 0.705882 0.0106477 
	7.27002 0.715716 0.698391 
	-0.021452 0.0467006 0.552488 
	-0.000259399 0.0171679 
	0.707083 0.00578998 -0.00578998 
	0.00365725 -0.300684 -0.0116045 
}

frame 19 {
	20.0283 28.855 -0.5 0.5 -0.5 
	0.709947 
	-0.000725172 0.000535302 0.593892 
	-0.450944 0.544655 -0.44165 
	-0.704255 -0.709947 
	-0.000725172 0.000535302 0.593892 
	-0.000239345 0.000103367 0.0431508 
	0.450945 -0.544655 -0.441651 
	0.000238419 -0.000505338 0.000211954 
	0.000129653 0.000498623 0.00437497 
	0.000135288 0.000830653 0.000514507 
	0.000888717 -0.00101954 -0.0105957 
	7.2688 0.000536528 -0.000892907 0.011904 
	6.2315 0.000191239 0.000565172 -0.000854739 
	7.2688 0.706214 
	-0.000762939 0.000961743 0.000495636 0.535422 
	13.341 -0.000718649 0.000123386 0.0171679 
	-0.707083 -0.00578996 -0.00578996 
	0.00895715 0.70705 0.00895715 
	-0.0416077 0.705882 0.0106477 
	7.27002 0.715716 0.698391 
	0.000152085 -0.00110672 0.571753 
	-0.000263214 0.0171679 
	0.707083 0.00578997 -0.00578997 
	0.00365725 -0.300684 -0.0116045 
}

